{
    "name": "IDF file Reader",
    "author": "Nano Dimension -D.S",
    "version": "1.0",
    "api": 6,
    "supported_sdk_versions": ["6.0.0", "7.0.0"],
    "description": "Reads IDF files (pair) and create a RCM mesh on tray",
    "catalog": "switch"
}