G04*
G04 #@! TF.GenerationSoftware,Altium Limited,Altium Designer,19.1.6 (110)*
G04*
G04 Layer_Physical_Order=2*
G04 Layer_Color=16711680*
%FSLAX44Y44*%
%MOMM*%
G71*
G01*
G75*
%ADD10C,0.2540*%
%ADD11C,0.2000*%
%ADD52C,0.5000*%
%ADD53O,2.0000X1.4500*%
%ADD54O,1.8000X1.1500*%
%ADD55C,0.4000*%
%ADD56C,1.6500*%
%ADD57R,1.6500X1.6500*%
%ADD58C,0.3000*%
%ADD59C,0.7112*%
G36*
X1403037Y927437D02*
X1403037Y927465D01*
X1403928Y928370D01*
X1413038D01*
X1413446Y927167D01*
X1412776Y926654D01*
X1410973Y924304D01*
X1409840Y921567D01*
X1409620Y919900D01*
X1423550D01*
X1437480D01*
X1437260Y921567D01*
X1436127Y924304D01*
X1434324Y926654D01*
X1433654Y927167D01*
X1434062Y928370D01*
X1451047D01*
X1451455Y927167D01*
X1451346Y927084D01*
X1449783Y925047D01*
X1448801Y922675D01*
X1448633Y921400D01*
X1461550D01*
Y920130D01*
X1462820D01*
Y910296D01*
X1464800D01*
X1467345Y910631D01*
X1469717Y911613D01*
X1471754Y913176D01*
X1473200Y915061D01*
X1473737Y915029D01*
X1474470Y914707D01*
Y848053D01*
X1473737Y847731D01*
X1473200Y847699D01*
X1471754Y849584D01*
X1469717Y851147D01*
X1467345Y852129D01*
X1464800Y852464D01*
X1462820D01*
Y842630D01*
X1461550D01*
Y841360D01*
X1448633D01*
X1448801Y840085D01*
X1449783Y837713D01*
X1451346Y835676D01*
X1453383Y834113D01*
X1455755Y833131D01*
X1455838Y833120D01*
X1455755Y831850D01*
X1428943D01*
X1428860Y833120D01*
X1429237Y833170D01*
X1431974Y834303D01*
X1434324Y836106D01*
X1436127Y838456D01*
X1437260Y841193D01*
X1437480Y842860D01*
X1423550D01*
X1409620D01*
X1409840Y841193D01*
X1410973Y838456D01*
X1412776Y836106D01*
X1415126Y834303D01*
X1417863Y833170D01*
X1418240Y833120D01*
X1418156Y831850D01*
X1407160D01*
X1405771Y830461D01*
X1404599Y830935D01*
X1404620Y829310D01*
X1355090Y779780D01*
X1180709D01*
X1135881Y816203D01*
X1136218Y817565D01*
X1137287Y817778D01*
X1139107Y818994D01*
X1140322Y820813D01*
X1140496Y821689D01*
X1135141D01*
Y822959D01*
X1133871D01*
Y828557D01*
X1132840Y829404D01*
Y838515D01*
X1133871Y839362D01*
Y844960D01*
Y850559D01*
X1132840Y851405D01*
Y935990D01*
X1180709Y979170D01*
X1355090D01*
X1403037Y927437D01*
D02*
G37*
%LPC*%
G36*
X1287780Y958756D02*
Y954161D01*
X1292375D01*
X1292162Y955232D01*
X1290836Y957217D01*
X1288851Y958543D01*
X1287780Y958756D01*
D02*
G37*
G36*
X1285240D02*
X1284169Y958543D01*
X1282184Y957217D01*
X1280858Y955232D01*
X1280645Y954161D01*
X1285240D01*
Y958756D01*
D02*
G37*
G36*
X1292375Y951621D02*
X1287780D01*
Y947026D01*
X1288851Y947239D01*
X1290836Y948565D01*
X1292162Y950550D01*
X1292375Y951621D01*
D02*
G37*
G36*
X1285240D02*
X1280645D01*
X1280858Y950550D01*
X1282184Y948565D01*
X1284169Y947239D01*
X1285240Y947026D01*
Y951621D01*
D02*
G37*
G36*
X1210818Y936775D02*
Y932180D01*
X1215413D01*
X1215200Y933251D01*
X1213874Y935236D01*
X1211889Y936562D01*
X1210818Y936775D01*
D02*
G37*
G36*
X1208278D02*
X1207207Y936562D01*
X1205222Y935236D01*
X1203896Y933251D01*
X1203683Y932180D01*
X1208278D01*
Y936775D01*
D02*
G37*
G36*
X1160780D02*
Y932180D01*
X1165375D01*
X1165162Y933251D01*
X1163836Y935236D01*
X1161851Y936562D01*
X1160780Y936775D01*
D02*
G37*
G36*
X1158240D02*
X1157169Y936562D01*
X1155184Y935236D01*
X1153858Y933251D01*
X1153645Y932180D01*
X1158240D01*
Y936775D01*
D02*
G37*
G36*
X1225550Y943369D02*
X1224184Y943097D01*
X1223027Y942323D01*
X1222253Y941166D01*
X1221981Y939800D01*
X1222253Y938434D01*
X1223027Y937277D01*
X1224184Y936503D01*
X1224605Y936420D01*
X1228467Y932557D01*
X1228467Y932557D01*
X1229460Y931894D01*
X1230630Y931661D01*
X1230630Y931661D01*
X1240338D01*
X1240694Y931423D01*
X1242060Y931151D01*
X1243426Y931423D01*
X1244583Y932197D01*
X1245357Y933354D01*
X1245629Y934720D01*
X1245357Y936086D01*
X1244583Y937243D01*
X1243426Y938017D01*
X1242060Y938289D01*
X1240694Y938017D01*
X1240338Y937779D01*
X1231897D01*
X1228931Y940745D01*
X1228847Y941166D01*
X1228073Y942323D01*
X1226916Y943097D01*
X1225550Y943369D01*
D02*
G37*
G36*
X1215413Y929640D02*
X1210818D01*
Y925045D01*
X1211889Y925258D01*
X1213874Y926584D01*
X1215200Y928569D01*
X1215413Y929640D01*
D02*
G37*
G36*
X1208278D02*
X1203683D01*
X1203896Y928569D01*
X1205222Y926584D01*
X1207207Y925258D01*
X1208278Y925045D01*
Y929640D01*
D02*
G37*
G36*
X1165375D02*
X1160780D01*
Y925045D01*
X1161851Y925258D01*
X1163836Y926584D01*
X1165162Y928569D01*
X1165375Y929640D01*
D02*
G37*
G36*
X1158240D02*
X1153645D01*
X1153858Y928569D01*
X1155184Y926584D01*
X1157169Y925258D01*
X1158240Y925045D01*
Y929640D01*
D02*
G37*
G36*
X1388110Y922805D02*
Y918210D01*
X1392705D01*
X1392492Y919281D01*
X1391166Y921266D01*
X1389181Y922592D01*
X1388110Y922805D01*
D02*
G37*
G36*
X1385570D02*
X1384499Y922592D01*
X1382514Y921266D01*
X1381188Y919281D01*
X1380975Y918210D01*
X1385570D01*
Y922805D01*
D02*
G37*
G36*
X1252220Y926859D02*
X1250854Y926587D01*
X1250498Y926349D01*
X1233170D01*
X1232000Y926116D01*
X1231007Y925453D01*
X1223387Y917833D01*
X1222724Y916841D01*
X1222600Y916217D01*
X1221757Y915653D01*
X1220983Y914496D01*
X1219605Y914078D01*
X1219200Y914159D01*
X1217834Y913887D01*
X1216677Y913113D01*
X1215903Y911956D01*
X1215631Y910590D01*
X1215903Y909224D01*
X1216677Y908067D01*
X1217834Y907293D01*
X1217681Y906029D01*
X1210310D01*
X1209139Y905796D01*
X1208147Y905133D01*
X1201745Y898730D01*
X1201324Y898647D01*
X1200167Y897873D01*
X1199393Y896716D01*
X1199121Y895350D01*
X1199393Y893984D01*
X1200167Y892827D01*
X1200191Y892810D01*
Y891540D01*
X1200167Y891523D01*
X1199393Y890366D01*
X1199121Y889000D01*
X1199393Y887634D01*
X1200167Y886477D01*
X1201324Y885703D01*
X1202690Y885431D01*
X1204056Y885703D01*
X1204412Y885941D01*
X1210500D01*
X1210500Y885941D01*
X1211671Y886174D01*
X1212663Y886837D01*
X1221737Y895911D01*
X1259638D01*
X1277422Y878127D01*
X1277422Y878127D01*
X1278414Y877464D01*
X1279585Y877231D01*
X1289706D01*
X1289831Y875961D01*
X1289597Y875915D01*
X1288954Y875787D01*
X1287797Y875013D01*
X1287023Y873856D01*
X1286943Y873453D01*
X1269989Y856499D01*
X1209415D01*
X1208799Y857250D01*
X1208527Y858616D01*
X1207753Y859773D01*
X1206855Y860373D01*
X1206562Y860800D01*
X1206417Y861877D01*
X1206786Y862429D01*
X1206891Y862956D01*
X1207257Y863504D01*
X1207529Y864870D01*
X1207257Y866236D01*
X1206483Y867393D01*
X1205326Y868167D01*
X1203960Y868439D01*
X1202594Y868167D01*
X1201437Y867393D01*
X1200663Y866236D01*
X1200391Y864870D01*
X1200477Y864442D01*
X1191637Y855603D01*
X1190974Y854611D01*
X1190741Y853440D01*
X1190741Y853440D01*
Y831032D01*
X1190503Y830676D01*
X1190231Y829310D01*
X1190503Y827944D01*
X1191277Y826787D01*
X1192434Y826013D01*
X1193800Y825741D01*
X1195166Y826013D01*
X1196323Y826787D01*
X1197097Y827944D01*
X1197369Y829310D01*
X1197097Y830676D01*
X1196859Y831032D01*
Y852173D01*
X1200709Y856023D01*
X1202107Y855625D01*
X1202363Y855242D01*
Y854519D01*
X1202363Y854519D01*
X1202595Y853348D01*
X1203258Y852356D01*
X1204337Y851277D01*
X1205330Y850614D01*
X1206500Y850381D01*
X1206500Y850381D01*
X1223761D01*
Y838652D01*
X1223523Y838296D01*
X1223251Y836930D01*
X1223523Y835564D01*
X1224297Y834407D01*
X1225454Y833633D01*
X1226820Y833361D01*
X1228186Y833633D01*
X1229343Y834407D01*
X1230117Y835564D01*
X1230389Y836930D01*
X1230117Y838296D01*
X1229879Y838652D01*
Y850381D01*
X1270492D01*
Y831850D01*
X1270841Y830094D01*
X1271836Y828606D01*
X1273324Y827611D01*
X1275080Y827262D01*
X1276836Y827611D01*
X1278324Y828606D01*
X1279319Y830094D01*
X1279668Y831850D01*
Y850900D01*
X1279319Y852656D01*
X1278324Y854144D01*
X1277935Y854405D01*
X1277810Y855668D01*
X1291248Y869106D01*
X1291686Y869193D01*
X1292843Y869967D01*
X1293617Y871124D01*
X1293889Y872490D01*
X1293617Y873856D01*
X1292843Y875013D01*
X1291686Y875787D01*
X1291043Y875915D01*
X1290809Y875961D01*
X1290934Y877231D01*
X1314933D01*
X1315186Y875961D01*
X1313091Y875093D01*
X1310950Y873450D01*
X1309307Y871309D01*
X1308274Y868816D01*
X1307922Y866140D01*
X1308274Y863464D01*
X1309307Y860971D01*
X1310950Y858830D01*
X1313091Y857187D01*
X1315584Y856154D01*
X1318260Y855802D01*
X1320936Y856154D01*
X1323429Y857187D01*
X1325181Y858531D01*
X1326451Y858009D01*
Y854890D01*
X1326451Y854890D01*
X1326684Y853719D01*
X1327347Y852727D01*
X1333410Y846664D01*
Y830490D01*
X1353910D01*
Y850990D01*
X1337736D01*
X1332569Y856157D01*
Y862813D01*
X1333839Y863066D01*
X1334707Y860971D01*
X1336350Y858830D01*
X1338491Y857187D01*
X1340984Y856154D01*
X1343660Y855802D01*
X1346336Y856154D01*
X1348829Y857187D01*
X1350970Y858830D01*
X1352613Y860971D01*
X1353646Y863464D01*
X1353998Y866140D01*
X1353646Y868816D01*
X1352613Y871309D01*
X1350970Y873450D01*
X1348829Y875093D01*
X1346336Y876126D01*
X1343660Y876478D01*
X1340984Y876126D01*
X1338491Y875093D01*
X1336350Y873450D01*
X1334707Y871309D01*
X1333839Y869214D01*
X1332569Y869467D01*
Y870800D01*
X1332336Y871970D01*
X1331673Y872963D01*
X1331673Y872963D01*
X1323299Y881337D01*
X1323665Y882767D01*
X1325570Y884230D01*
X1327213Y886371D01*
X1328246Y888864D01*
X1328598Y891540D01*
X1328246Y894216D01*
X1327213Y896709D01*
X1325570Y898850D01*
X1323429Y900493D01*
X1320936Y901526D01*
X1318260Y901878D01*
X1315584Y901526D01*
X1313091Y900493D01*
X1310950Y898850D01*
X1309307Y896709D01*
X1308274Y894216D01*
X1307922Y891540D01*
X1308274Y888864D01*
X1309307Y886371D01*
X1310651Y884619D01*
X1310129Y883349D01*
X1280852D01*
X1266153Y898048D01*
X1266639Y899221D01*
X1268054D01*
X1268054Y899221D01*
X1269224Y899454D01*
X1269622Y899720D01*
X1272349D01*
X1272349Y899720D01*
X1273519Y899953D01*
X1274512Y900616D01*
X1282375Y908479D01*
X1282796Y908563D01*
X1283953Y909337D01*
X1284727Y910494D01*
X1284999Y911860D01*
X1284727Y913226D01*
X1283953Y914383D01*
X1282796Y915157D01*
X1281430Y915429D01*
X1280064Y915157D01*
X1278907Y914383D01*
X1278133Y913226D01*
X1278049Y912805D01*
X1271601Y906357D01*
X1270053Y906421D01*
X1269759Y906780D01*
X1269487Y908146D01*
X1268713Y909303D01*
X1267556Y910077D01*
X1266190Y910349D01*
X1264824Y910077D01*
X1264752Y910029D01*
X1236419D01*
X1236098Y911299D01*
X1236963Y911877D01*
X1237737Y913034D01*
X1237821Y913455D01*
X1239517Y915151D01*
X1256848D01*
X1257204Y914913D01*
X1258570Y914641D01*
X1259936Y914913D01*
X1261093Y915687D01*
X1261867Y916844D01*
X1262139Y918210D01*
X1261867Y919576D01*
X1261093Y920733D01*
X1259936Y921507D01*
X1258570Y921779D01*
X1257204Y921507D01*
X1256848Y921269D01*
X1256490D01*
X1255639Y922539D01*
X1255789Y923290D01*
X1255517Y924656D01*
X1254743Y925813D01*
X1253586Y926587D01*
X1252220Y926859D01*
D02*
G37*
G36*
X1392705Y915670D02*
X1388110D01*
Y911075D01*
X1389181Y911288D01*
X1391166Y912614D01*
X1392492Y914599D01*
X1392705Y915670D01*
D02*
G37*
G36*
X1385570D02*
X1380975D01*
X1381188Y914599D01*
X1382514Y912614D01*
X1384499Y911288D01*
X1385570Y911075D01*
Y915670D01*
D02*
G37*
G36*
X1460280Y918860D02*
X1448633D01*
X1448801Y917585D01*
X1449783Y915213D01*
X1451346Y913176D01*
X1453383Y911613D01*
X1455755Y910631D01*
X1458300Y910296D01*
X1460280D01*
Y918860D01*
D02*
G37*
G36*
X1437480Y917360D02*
X1424820D01*
Y907283D01*
X1426300D01*
X1429237Y907670D01*
X1431974Y908803D01*
X1434324Y910606D01*
X1436127Y912956D01*
X1437260Y915693D01*
X1437480Y917360D01*
D02*
G37*
G36*
X1422280D02*
X1409620D01*
X1409840Y915693D01*
X1410973Y912956D01*
X1412776Y910606D01*
X1415126Y908803D01*
X1417863Y907670D01*
X1420800Y907283D01*
X1422280D01*
Y917360D01*
D02*
G37*
G36*
X1343660Y927278D02*
X1340984Y926926D01*
X1338491Y925893D01*
X1336350Y924250D01*
X1334707Y922109D01*
X1333674Y919616D01*
X1333322Y916940D01*
X1333674Y914264D01*
X1334707Y911771D01*
X1336350Y909630D01*
X1338491Y907987D01*
X1340984Y906954D01*
X1343660Y906602D01*
X1346336Y906954D01*
X1348829Y907987D01*
X1350970Y909630D01*
X1352613Y911771D01*
X1353646Y914264D01*
X1353998Y916940D01*
X1353646Y919616D01*
X1352613Y922109D01*
X1350970Y924250D01*
X1348829Y925893D01*
X1346336Y926926D01*
X1343660Y927278D01*
D02*
G37*
G36*
X1318260D02*
X1315584Y926926D01*
X1313091Y925893D01*
X1310950Y924250D01*
X1309307Y922109D01*
X1308274Y919616D01*
X1307922Y916940D01*
X1308274Y914264D01*
X1309307Y911771D01*
X1310950Y909630D01*
X1313091Y907987D01*
X1315584Y906954D01*
X1318260Y906602D01*
X1320936Y906954D01*
X1323429Y907987D01*
X1325570Y909630D01*
X1327213Y911771D01*
X1328246Y914264D01*
X1328598Y916940D01*
X1328246Y919616D01*
X1327213Y922109D01*
X1325570Y924250D01*
X1323429Y925893D01*
X1320936Y926926D01*
X1318260Y927278D01*
D02*
G37*
G36*
X1178170Y904595D02*
Y900000D01*
X1182765D01*
X1182552Y901071D01*
X1181226Y903056D01*
X1179241Y904382D01*
X1178170Y904595D01*
D02*
G37*
G36*
X1175630D02*
X1174559Y904382D01*
X1172574Y903056D01*
X1171248Y901071D01*
X1171035Y900000D01*
X1175630D01*
Y904595D01*
D02*
G37*
G36*
X1192456Y901385D02*
X1190895Y901075D01*
X1189572Y900191D01*
X1188688Y898867D01*
X1188377Y897307D01*
X1188688Y895746D01*
X1189572Y894423D01*
X1190895Y893539D01*
X1192456Y893228D01*
X1194016Y893539D01*
X1195340Y894423D01*
X1196224Y895746D01*
X1196534Y897307D01*
X1196224Y898867D01*
X1195340Y900191D01*
X1194016Y901075D01*
X1192456Y901385D01*
D02*
G37*
G36*
X1182765Y897460D02*
X1178170D01*
Y892865D01*
X1179241Y893078D01*
X1181226Y894404D01*
X1182552Y896389D01*
X1182765Y897460D01*
D02*
G37*
G36*
X1175630D02*
X1171035D01*
X1171248Y896389D01*
X1172574Y894404D01*
X1174559Y893078D01*
X1175630Y892865D01*
Y897460D01*
D02*
G37*
G36*
X1231900Y892325D02*
Y887730D01*
X1236495D01*
X1236282Y888801D01*
X1234956Y890786D01*
X1232971Y892112D01*
X1231900Y892325D01*
D02*
G37*
G36*
X1229360D02*
X1228289Y892112D01*
X1226304Y890786D01*
X1224978Y888801D01*
X1224765Y887730D01*
X1229360D01*
Y892325D01*
D02*
G37*
G36*
X1248410Y891055D02*
Y886460D01*
X1253005D01*
X1252792Y887531D01*
X1251466Y889516D01*
X1249481Y890842D01*
X1248410Y891055D01*
D02*
G37*
G36*
X1245870D02*
X1244799Y890842D01*
X1242814Y889516D01*
X1241488Y887531D01*
X1241275Y886460D01*
X1245870D01*
Y891055D01*
D02*
G37*
G36*
X1343660Y901878D02*
X1340984Y901526D01*
X1338491Y900493D01*
X1336350Y898850D01*
X1334707Y896709D01*
X1333674Y894216D01*
X1333322Y891540D01*
X1333674Y888864D01*
X1334707Y886371D01*
X1336350Y884230D01*
X1338491Y882587D01*
X1340984Y881554D01*
X1343660Y881202D01*
X1346336Y881554D01*
X1348829Y882587D01*
X1350970Y884230D01*
X1352613Y886371D01*
X1353646Y888864D01*
X1353998Y891540D01*
X1353646Y894216D01*
X1352613Y896709D01*
X1350970Y898850D01*
X1348829Y900493D01*
X1346336Y901526D01*
X1343660Y901878D01*
D02*
G37*
G36*
X1236495Y885190D02*
X1231900D01*
Y880595D01*
X1232971Y880808D01*
X1234956Y882134D01*
X1236282Y884119D01*
X1236495Y885190D01*
D02*
G37*
G36*
X1229360D02*
X1224765D01*
X1224978Y884119D01*
X1226304Y882134D01*
X1228289Y880808D01*
X1229360Y880595D01*
Y885190D01*
D02*
G37*
G36*
X1253005Y883920D02*
X1248410D01*
Y879325D01*
X1249481Y879538D01*
X1251466Y880864D01*
X1252792Y882849D01*
X1253005Y883920D01*
D02*
G37*
G36*
X1245870D02*
X1241275D01*
X1241488Y882849D01*
X1242814Y880864D01*
X1244799Y879538D01*
X1245870Y879325D01*
Y883920D01*
D02*
G37*
G36*
X1161170Y882595D02*
Y878000D01*
X1165765D01*
X1165552Y879071D01*
X1164226Y881056D01*
X1162241Y882382D01*
X1161170Y882595D01*
D02*
G37*
G36*
X1158630D02*
X1157559Y882382D01*
X1155574Y881056D01*
X1154248Y879071D01*
X1154035Y878000D01*
X1158630D01*
Y882595D01*
D02*
G37*
G36*
X1391920Y881286D02*
Y876691D01*
X1396515D01*
X1396302Y877762D01*
X1394976Y879747D01*
X1392991Y881073D01*
X1391920Y881286D01*
D02*
G37*
G36*
X1389380D02*
X1388309Y881073D01*
X1386324Y879747D01*
X1384998Y877762D01*
X1384785Y876691D01*
X1389380D01*
Y881286D01*
D02*
G37*
G36*
X1247140Y877085D02*
Y872490D01*
X1251735D01*
X1251522Y873561D01*
X1250196Y875546D01*
X1248211Y876872D01*
X1247140Y877085D01*
D02*
G37*
G36*
X1244600D02*
X1243529Y876872D01*
X1241544Y875546D01*
X1240218Y873561D01*
X1240005Y872490D01*
X1244600D01*
Y877085D01*
D02*
G37*
G36*
X1231900D02*
Y872490D01*
X1236495D01*
X1236282Y873561D01*
X1234956Y875546D01*
X1232971Y876872D01*
X1231900Y877085D01*
D02*
G37*
G36*
X1229360D02*
X1228289Y876872D01*
X1226304Y875546D01*
X1224978Y873561D01*
X1224765Y872490D01*
X1229360D01*
Y877085D01*
D02*
G37*
G36*
X1165765Y875460D02*
X1161170D01*
Y870865D01*
X1162241Y871078D01*
X1164226Y872404D01*
X1165552Y874389D01*
X1165765Y875460D01*
D02*
G37*
G36*
X1158630D02*
X1154035D01*
X1154248Y874389D01*
X1155574Y872404D01*
X1157559Y871078D01*
X1158630Y870865D01*
Y875460D01*
D02*
G37*
G36*
X1396515Y874151D02*
X1391920D01*
Y869556D01*
X1392991Y869769D01*
X1394976Y871095D01*
X1396302Y873080D01*
X1396515Y874151D01*
D02*
G37*
G36*
X1389380D02*
X1384785D01*
X1384998Y873080D01*
X1386324Y871095D01*
X1388309Y869769D01*
X1389380Y869556D01*
Y874151D01*
D02*
G37*
G36*
X1251735Y869950D02*
X1247140D01*
Y865355D01*
X1248211Y865568D01*
X1250196Y866894D01*
X1251522Y868879D01*
X1251735Y869950D01*
D02*
G37*
G36*
X1244600D02*
X1240005D01*
X1240218Y868879D01*
X1241544Y866894D01*
X1243529Y865568D01*
X1244600Y865355D01*
Y869950D01*
D02*
G37*
G36*
X1236495D02*
X1231900D01*
Y865355D01*
X1232971Y865568D01*
X1234956Y866894D01*
X1236282Y868879D01*
X1236495Y869950D01*
D02*
G37*
G36*
X1229360D02*
X1224765D01*
X1224978Y868879D01*
X1226304Y866894D01*
X1228289Y865568D01*
X1229360Y865355D01*
Y869950D01*
D02*
G37*
G36*
X1161171Y861845D02*
Y857250D01*
X1165766D01*
X1165553Y858321D01*
X1164227Y860306D01*
X1162242Y861632D01*
X1161171Y861845D01*
D02*
G37*
G36*
X1158631D02*
X1157560Y861632D01*
X1155575Y860306D01*
X1154249Y858321D01*
X1154036Y857250D01*
X1158631D01*
Y861845D01*
D02*
G37*
G36*
X1165766Y854710D02*
X1161171D01*
Y850115D01*
X1162242Y850328D01*
X1164227Y851654D01*
X1165553Y853639D01*
X1165766Y854710D01*
D02*
G37*
G36*
X1158631D02*
X1154036D01*
X1154249Y853639D01*
X1155575Y851654D01*
X1157560Y850328D01*
X1158631Y850115D01*
Y854710D01*
D02*
G37*
G36*
X1136411Y850315D02*
Y846230D01*
X1140496D01*
X1140322Y847106D01*
X1139107Y848925D01*
X1137287Y850141D01*
X1136411Y850315D01*
D02*
G37*
G36*
X1426300Y855477D02*
X1424820D01*
Y845400D01*
X1437480D01*
X1437260Y847067D01*
X1436127Y849803D01*
X1434324Y852154D01*
X1431974Y853957D01*
X1429237Y855090D01*
X1426300Y855477D01*
D02*
G37*
G36*
X1422280D02*
X1420800D01*
X1417863Y855090D01*
X1415126Y853957D01*
X1412776Y852154D01*
X1410973Y849803D01*
X1409840Y847067D01*
X1409620Y845400D01*
X1422280D01*
Y855477D01*
D02*
G37*
G36*
X1460280Y852464D02*
X1458300D01*
X1455755Y852129D01*
X1453383Y851147D01*
X1451346Y849584D01*
X1449783Y847547D01*
X1448801Y845175D01*
X1448633Y843900D01*
X1460280D01*
Y852464D01*
D02*
G37*
G36*
X1319530Y852928D02*
Y842010D01*
X1330448D01*
X1330195Y843938D01*
X1328960Y846918D01*
X1326997Y849477D01*
X1324438Y851440D01*
X1321458Y852675D01*
X1319530Y852928D01*
D02*
G37*
G36*
X1316990D02*
X1315062Y852675D01*
X1312082Y851440D01*
X1309523Y849477D01*
X1307560Y846918D01*
X1306325Y843938D01*
X1306071Y842010D01*
X1316990D01*
Y852928D01*
D02*
G37*
G36*
X1140496Y843690D02*
X1136411D01*
Y839605D01*
X1137287Y839779D01*
X1139107Y840995D01*
X1140322Y842814D01*
X1140496Y843690D01*
D02*
G37*
G36*
X1330448Y839470D02*
X1319530D01*
Y828551D01*
X1321458Y828805D01*
X1324438Y830040D01*
X1326997Y832003D01*
X1328960Y834562D01*
X1330195Y837542D01*
X1330448Y839470D01*
D02*
G37*
G36*
X1316990D02*
X1306071D01*
X1306325Y837542D01*
X1307560Y834562D01*
X1309523Y832003D01*
X1312082Y830040D01*
X1315062Y828805D01*
X1316990Y828551D01*
Y839470D01*
D02*
G37*
G36*
X1136411Y828314D02*
Y824229D01*
X1140496D01*
X1140322Y825105D01*
X1139107Y826924D01*
X1137287Y828140D01*
X1136411Y828314D01*
D02*
G37*
G36*
X1261110Y810166D02*
Y805571D01*
X1265705D01*
X1265492Y806642D01*
X1264166Y808627D01*
X1262181Y809953D01*
X1261110Y810166D01*
D02*
G37*
G36*
X1258570D02*
X1257499Y809953D01*
X1255514Y808627D01*
X1254188Y806642D01*
X1253975Y805571D01*
X1258570D01*
Y810166D01*
D02*
G37*
G36*
X1239520Y811755D02*
Y805571D01*
X1245704D01*
X1245611Y806274D01*
X1244850Y808112D01*
X1243639Y809690D01*
X1242061Y810901D01*
X1240222Y811663D01*
X1239520Y811755D01*
D02*
G37*
G36*
X1236980D02*
X1236277Y811663D01*
X1234439Y810901D01*
X1232861Y809690D01*
X1231650Y808112D01*
X1230889Y806274D01*
X1230796Y805571D01*
X1236980D01*
Y811755D01*
D02*
G37*
G36*
X1195070Y810485D02*
Y804301D01*
X1201254D01*
X1201161Y805004D01*
X1200400Y806842D01*
X1199189Y808420D01*
X1197611Y809631D01*
X1195772Y810393D01*
X1195070Y810485D01*
D02*
G37*
G36*
X1192530D02*
X1191827Y810393D01*
X1189989Y809631D01*
X1188411Y808420D01*
X1187200Y806842D01*
X1186439Y805004D01*
X1186346Y804301D01*
X1192530D01*
Y810485D01*
D02*
G37*
G36*
X1265705Y803031D02*
X1261110D01*
Y798436D01*
X1262181Y798649D01*
X1264166Y799975D01*
X1265492Y801960D01*
X1265705Y803031D01*
D02*
G37*
G36*
X1258570D02*
X1253975D01*
X1254188Y801960D01*
X1255514Y799975D01*
X1257499Y798649D01*
X1258570Y798436D01*
Y803031D01*
D02*
G37*
G36*
X1245704D02*
X1239520D01*
Y796847D01*
X1240222Y796940D01*
X1242061Y797701D01*
X1243639Y798912D01*
X1244850Y800491D01*
X1245611Y802329D01*
X1245704Y803031D01*
D02*
G37*
G36*
X1236980D02*
X1230796D01*
X1230889Y802329D01*
X1231650Y800491D01*
X1232861Y798912D01*
X1234439Y797701D01*
X1236277Y796940D01*
X1236980Y796847D01*
Y803031D01*
D02*
G37*
G36*
X1201254Y801761D02*
X1195070D01*
Y795577D01*
X1195772Y795670D01*
X1197611Y796431D01*
X1199189Y797642D01*
X1200400Y799221D01*
X1201161Y801059D01*
X1201254Y801761D01*
D02*
G37*
G36*
X1192530D02*
X1186346D01*
X1186439Y801059D01*
X1187200Y799221D01*
X1188411Y797642D01*
X1189989Y796431D01*
X1191827Y795670D01*
X1192530Y795577D01*
Y801761D01*
D02*
G37*
%LPD*%
D10*
X1275080Y850900D02*
Y851128D01*
Y850900D02*
X1275539Y851359D01*
Y851587D01*
X1275080Y851128D02*
X1275539Y851587D01*
D11*
X1222820Y906970D02*
X1266190D01*
X1272349Y902779D02*
X1281430Y911860D01*
X1271256Y853440D02*
X1290306Y872490D01*
X1290320D01*
X1226820Y853440D02*
X1271256D01*
X1206500D02*
X1226820D01*
Y836930D02*
Y853440D01*
X1202690Y895350D02*
X1210310Y902970D01*
X1262562D01*
X1263252Y902280D01*
X1268054D01*
X1268553Y902779D01*
X1272349D01*
X1266190Y906780D02*
Y906970D01*
X1219200Y910590D02*
X1222820Y906970D01*
X1225550Y915670D02*
X1233170Y923290D01*
X1225550Y914671D02*
Y915670D01*
X1224280Y913401D02*
X1225550Y914671D01*
X1224280Y913130D02*
Y913401D01*
X1233170Y923290D02*
X1252220D01*
X1230630Y934720D02*
X1242060D01*
X1234440Y914400D02*
X1238250Y918210D01*
X1258570D01*
X1279585Y880290D02*
X1320020D01*
X1260905Y898970D02*
X1279585Y880290D01*
X1220470Y898970D02*
X1260905D01*
X1210500Y889000D02*
X1220470Y898970D01*
X1205421Y854519D02*
Y857059D01*
X1205230Y857250D02*
X1205421Y857059D01*
Y854519D02*
X1206500Y853440D01*
X1202690Y889000D02*
X1210500D01*
X1193800Y853440D02*
X1203960Y863600D01*
X1320020Y880290D02*
X1329510Y870800D01*
Y854890D02*
Y870800D01*
Y854890D02*
X1343660Y840740D01*
X1193800Y829310D02*
Y853440D01*
X1203960Y863600D02*
Y864870D01*
X1225550Y939800D02*
X1230630Y934720D01*
D52*
X1275080Y831850D02*
Y850900D01*
D53*
X1423550Y844130D02*
D03*
Y918630D02*
D03*
D54*
X1461550Y842630D02*
D03*
Y920130D02*
D03*
D55*
X1192456Y897307D02*
D03*
X1386840Y916940D02*
D03*
X1159510Y930910D02*
D03*
X1390650Y875421D02*
D03*
X1159900Y876730D02*
D03*
X1176900Y898730D02*
D03*
X1247140Y885190D02*
D03*
X1245870Y871220D02*
D03*
X1230630D02*
D03*
X1286510Y952891D02*
D03*
X1209548Y930910D02*
D03*
X1159901Y855980D02*
D03*
X1259840Y804301D02*
D03*
X1230630Y886460D02*
D03*
D56*
X1318260Y916940D02*
D03*
Y891540D02*
D03*
X1343660Y916940D02*
D03*
Y891540D02*
D03*
X1318260Y840740D02*
D03*
X1343660Y866140D02*
D03*
X1318260D02*
D03*
D57*
X1343660Y840740D02*
D03*
D58*
X1281430Y911860D02*
D03*
X1135141Y822959D02*
D03*
Y844960D02*
D03*
X1275080Y850900D02*
D03*
Y831850D02*
D03*
X1226820Y836930D02*
D03*
X1266190Y906780D02*
D03*
X1242060Y934720D02*
D03*
X1234440Y914400D02*
D03*
X1224280Y913130D02*
D03*
X1202690Y895350D02*
D03*
Y889000D02*
D03*
X1205230Y857250D02*
D03*
X1203960Y864870D02*
D03*
X1252220Y923290D02*
D03*
X1258570Y918210D02*
D03*
X1219200Y910590D02*
D03*
X1290320Y872490D02*
D03*
X1193800Y829310D02*
D03*
X1225550Y939800D02*
D03*
D59*
X1193800Y803031D02*
D03*
X1238250Y804301D02*
D03*
M02*
