G04 Layer: TopLayer*
G04 EasyEDA v6.4.7, 2020-10-15T11:55:52+03:00*
G04 07c2da105c314467b42fda74010ac923,10*
G04 Gerber Generator version 0.2*
G04 Scale: 100 percent, Rotated: No, Reflected: No *
G04 Dimensions in millimeters *
G04 leading zeros omitted , absolute positions ,3 integer and 3 decimal *
%FSLAX33Y33*%
%MOMM*%
G90*
D02*

%ADD10C,0.254000*%
%ADD11C,0.609600*%
%ADD12R,0.650240X2.199640*%
%ADD13R,2.199640X0.650240*%
%ADD14C,1.524000*%

%LPD*%
G54D10*
G01X27407Y1504D02*
G01X27407Y4573D01*
G01X4547Y30501D02*
G01X4547Y27433D01*
G01X1477Y27432D02*
G01X4547Y27433D01*
G01X27407Y27433D02*
G01X27407Y30502D01*
G01X28804Y28703D02*
G01X28677Y28829D01*
G01X28677Y30502D01*
G01X28677Y28703D02*
G01X30478Y28702D01*
G01X27407Y27433D02*
G01X30478Y27433D01*
G01X30478Y4572D02*
G01X27407Y4573D01*
G01X28677Y3303D02*
G01X30478Y3302D01*
G01X28677Y3303D02*
G01X28677Y1503D01*
G01X1477Y3303D02*
G01X3277Y3303D01*
G01X3277Y3303D02*
G01X3277Y1503D01*
G01X4547Y1504D02*
G01X4547Y4573D01*
G01X1477Y4572D02*
G01X4547Y4573D01*
G01X3277Y30501D02*
G01X3298Y28703D01*
G01X3298Y28703D02*
G01X1477Y28703D01*
G01X1477Y16002D02*
G01X16002Y16002D01*
G01X16002Y16002D02*
G01X30478Y16002D01*
G01X1477Y5842D02*
G01X30478Y5842D01*
G01X1477Y7112D02*
G01X30455Y7112D01*
G01X1477Y8382D02*
G01X30478Y8382D01*
G01X1477Y9652D02*
G01X30478Y9652D01*
G01X1477Y10922D02*
G01X30478Y10922D01*
G01X1477Y12192D02*
G01X30478Y12192D01*
G01X1477Y13462D02*
G01X30478Y13462D01*
G01X1477Y14732D02*
G01X30478Y14732D01*
G01X1477Y17272D02*
G01X30478Y17272D01*
G01X1477Y18542D02*
G01X30478Y18542D01*
G01X1477Y19812D02*
G01X30478Y19812D01*
G01X1477Y21082D02*
G01X30478Y21082D01*
G01X1477Y22352D02*
G01X30478Y22352D01*
G01X1477Y23622D02*
G01X30478Y23622D01*
G01X1477Y24892D02*
G01X30478Y24892D01*
G01X1477Y26162D02*
G01X30478Y26162D01*
G54D12*
G01X15977Y30502D03*
G01X14707Y30502D03*
G01X13437Y30502D03*
G01X12167Y30502D03*
G01X10897Y30502D03*
G01X9627Y30502D03*
G01X8357Y30502D03*
G01X7087Y30502D03*
G01X5817Y30502D03*
G01X4547Y30502D03*
G01X3277Y30502D03*
G54D13*
G01X1476Y28702D03*
G01X1476Y27432D03*
G01X1476Y26162D03*
G01X1476Y24892D03*
G01X1476Y23622D03*
G01X1476Y22352D03*
G01X1476Y21082D03*
G01X1476Y19812D03*
G01X1476Y18542D03*
G01X1476Y17272D03*
G01X1476Y16002D03*
G01X1476Y14732D03*
G01X1476Y13462D03*
G01X1476Y12192D03*
G01X1476Y10922D03*
G01X1476Y9652D03*
G01X1476Y8382D03*
G01X1476Y7112D03*
G01X1476Y5842D03*
G01X1476Y4572D03*
G01X1476Y3302D03*
G54D12*
G01X3277Y1503D03*
G01X4547Y1503D03*
G01X5817Y1503D03*
G01X7087Y1503D03*
G01X8357Y1503D03*
G01X9627Y1503D03*
G01X10897Y1503D03*
G01X12167Y1503D03*
G01X13437Y1503D03*
G01X14707Y1503D03*
G01X15977Y1503D03*
G01X17247Y1503D03*
G01X18517Y1503D03*
G01X19787Y1503D03*
G01X21057Y1503D03*
G01X22327Y1503D03*
G01X23597Y1503D03*
G01X24867Y1503D03*
G01X26137Y1503D03*
G01X27407Y1503D03*
G01X28677Y1503D03*
G54D13*
G01X30478Y3302D03*
G01X30478Y4572D03*
G01X30478Y5842D03*
G01X30478Y7112D03*
G01X30478Y8382D03*
G01X30478Y9652D03*
G01X30478Y10922D03*
G01X30478Y12192D03*
G01X30478Y13462D03*
G01X30478Y14732D03*
G01X30478Y16002D03*
G01X30478Y17272D03*
G01X30478Y18542D03*
G01X30478Y19812D03*
G01X30478Y21082D03*
G01X30478Y22352D03*
G01X30478Y23622D03*
G01X30478Y24892D03*
G01X30478Y26162D03*
G01X30478Y27432D03*
G01X30478Y28702D03*
G54D12*
G01X28677Y30502D03*
G01X27407Y30502D03*
G01X26137Y30502D03*
G01X24867Y30502D03*
G01X23597Y30502D03*
G01X22327Y30502D03*
G01X21057Y30502D03*
G01X19787Y30502D03*
G01X18517Y30502D03*
G01X17247Y30502D03*
G54D14*
G01X16002Y16002D03*
G54D11*
G01X3298Y28703D03*
G01X4547Y27433D03*
G01X27407Y27433D03*
G01X28677Y28703D03*
G01X3277Y3303D03*
G01X4547Y4573D03*
G01X28677Y3303D03*
G01X27407Y4573D03*
M00*
M02*
