<?xml version="1.0" encoding="UTF-8" standalone="no"?>
<!-- Created with Inkscape (http://www.inkscape.org/) -->

<svg
   xmlns:dc="http://purl.org/dc/elements/1.1/"
   xmlns:cc="http://creativecommons.org/ns#"
   xmlns:rdf="http://www.w3.org/1999/02/22-rdf-syntax-ns#"
   xmlns:svg="http://www.w3.org/2000/svg"
   xmlns="http://www.w3.org/2000/svg"
   xmlns:sodipodi="http://sodipodi.sourceforge.net/DTD/sodipodi-0.dtd"
   xmlns:inkscape="http://www.inkscape.org/namespaces/inkscape"
   width="210mm"
   height="297mm"
   viewBox="0 0 210 297"
   version="1.1"
   id="svg3849"
   inkscape:version="0.92.4 (5da689c313, 2019-01-14)"
   sodipodi:docname="logo.svg">
  <defs
     id="defs3843" />
  <sodipodi:namedview
     id="base"
     pagecolor="#ffffff"
     bordercolor="#666666"
     borderopacity="1.0"
     inkscape:pageopacity="0.0"
     inkscape:pageshadow="2"
     inkscape:zoom="0.35"
     inkscape:cx="400"
     inkscape:cy="560"
     inkscape:document-units="mm"
     inkscape:current-layer="layer1"
     showgrid="false"
     inkscape:window-width="1920"
     inkscape:window-height="1017"
     inkscape:window-x="-8"
     inkscape:window-y="-8"
     inkscape:window-maximized="1" />
  <metadata
     id="metadata3846">
    <rdf:RDF>
      <cc:Work
         rdf:about="">
        <dc:format>image/svg+xml</dc:format>
        <dc:type
           rdf:resource="http://purl.org/dc/dcmitype/StillImage" />
        <dc:title></dc:title>
      </cc:Work>
    </rdf:RDF>
  </metadata>
  <g
     inkscape:label="Layer 1"
     inkscape:groupmode="layer"
     id="layer1">
    <path
       style="fill:#ececec;stroke-width:0.1889881"
       d="m 40.493572,159.02088 c -0.245388,-0.20443 -0.564303,-0.37169 -0.708705,-0.37169 -0.144399,0 -0.26263,-0.0638 -0.262736,-0.14174 -1.06e-4,-0.078 -0.412319,-0.37321 -0.91603,-0.65611 -0.503711,-0.2829 -1.67299,-0.98988 -2.598394,-1.57106 -1.433761,-0.90044 -1.774076,-1.03956 -2.301475,-0.94084 -0.754708,0.14126 -2.03589,-0.50598 -2.198151,-1.1105 -0.236561,-0.88132 -0.107875,-1.47183 0.44018,-2.01988 1.235604,-1.23561 3.227334,-0.38366 3.227334,1.38047 0,0.79971 0.03575,0.85032 1.044927,1.47919 0.574707,0.35814 1.616504,1.0182 2.315104,1.4668 0.698598,0.44861 1.592792,0.98375 1.987095,1.18921 l 0.716918,0.37356 2.96835,-2.2153 c 1.632593,-1.21841 3.095918,-2.33448 3.251832,-2.48015 0.155916,-0.14567 1.242242,-0.97993 2.414058,-1.85391 l 2.130573,-1.58905 2.027164,0.13967 c 2.846326,0.19611 3.336303,0.1734 6.846361,-0.31734 1.715066,-0.23978 3.96875,-0.54264 5.008184,-0.67302 3.055427,-0.38324 6.570821,-0.84834 7.181548,-0.95014 0.595138,-0.0992 3.061325,-0.41727 7.181549,-0.9262 1.351264,-0.16691 2.839545,-0.38359 3.307291,-0.48151 0.467744,-0.0979 1.488282,-0.23256 2.267858,-0.2992 0.779574,-0.0666 1.757587,-0.19303 2.173361,-0.28088 0.415775,-0.0878 1.648921,-0.25122 2.740327,-0.36307 1.091406,-0.11184 2.324555,-0.28373 2.740329,-0.38197 0.415775,-0.0982 1.404851,-0.23117 2.197947,-0.2954 l 1.441992,-0.11678 1.251088,-1.22671 c 1.207392,-1.18388 1.251085,-1.25929 1.251085,-2.15937 v -0.93264 h -0.946147 c -0.915893,0 -0.989645,0.0423 -2.306302,1.32292 -0.748083,0.7276 -1.449157,1.32721 -1.557941,1.33247 -0.108788,0.005 -1.643552,0.13167 -3.410593,0.28092 -1.767038,0.14925 -4.828645,0.39664 -6.803569,0.54974 -1.974927,0.15311 -3.888431,0.32712 -4.252233,0.3867 -0.64466,0.10557 -6.372064,0.61441 -8.933841,0.79372 -1.254618,0.0878 -1.286886,0.10342 -1.638488,0.79261 -0.361313,0.70824 -1.031023,1.1555 -1.730174,1.1555 -2.000528,0 -2.457882,-3.07668 -0.53435,-3.59463 0.735142,-0.19796 1.497523,-0.0261 2.064186,0.46528 0.216808,0.18801 0.663152,0.21 1.890226,0.0931 0.883521,-0.0842 3.233664,-0.28424 5.222544,-0.44463 1.988879,-0.16038 3.826579,-0.37162 4.083775,-0.4694 0.40004,-0.1521 2.410945,-2.78437 2.410945,-3.15593 0,-0.2054 0.944562,-1.01973 1.19091,-1.0267 0.124574,-0.004 0.566677,-0.17073 0.982451,-0.37156 0.415774,-0.20084 0.849191,-0.36804 0.963152,-0.37157 0.113959,-0.004 0.475398,-0.1402 0.803199,-0.30373 0.478364,-0.23864 0.597188,-0.41583 0.602011,-0.8977 0.02096,-2.0938 3.379523,-2.21314 3.599625,-0.12789 0.07545,0.71475 -0.05051,1.11719 -0.502179,1.60456 -0.467532,0.50447 -0.539525,0.52097 -1.773071,0.40632 -1.33349,-0.12393 -1.433714,-0.0978 -3.903194,1.01749 -0.541139,0.2444 -0.986362,0.66589 -1.464874,1.3868 -1.197017,1.80338 -1.29063,1.70673 1.502878,1.55172 1.342171,-0.0745 2.780488,-0.20716 3.196262,-0.29485 0.415774,-0.0877 1.942431,-0.22032 3.392572,-0.29474 l 2.636621,-0.1353 1.469694,-1.4 1.469692,-1.4 1.657823,0.0547 1.657824,0.0547 0.0549,1.67101 0.0549,1.67102 -1.474481,1.50444 -1.474481,1.50445 -2.171152,0.27013 c -1.194133,0.14857 -2.51133,0.31933 -2.927104,0.37946 -0.415771,0.0601 -1.776486,0.24012 -3.023809,0.39995 -1.24732,0.15984 -3.160826,0.40881 -4.252233,0.55327 -1.091406,0.14446 -2.664729,0.34983 -3.496278,0.45638 -1.954919,0.25048 -2.09373,0.30184 -1.793531,0.66356 0.128379,0.15468 0.421291,0.28124 0.650917,0.28124 0.229624,0 0.963354,0.16331 1.630503,0.3629 0.667152,0.1996 1.446877,0.41383 1.732722,0.47607 0.331713,0.0722 0.519716,0.23579 0.519716,0.45213 0,0.18642 -0.933479,1.31164 -2.074394,2.50049 l -2.074395,2.16154 0.1098,0.86326 c 0.101095,0.79483 0.05777,0.91843 -0.546508,1.55915 -0.762661,0.80866 -1.381913,0.89309 -2.316025,0.31578 -1.578983,-0.97586 -0.842888,-3.39965 1.032463,-3.39965 0.686525,0 0.886944,-0.11463 1.762678,-1.00819 2.103636,-2.14644 2.298089,-2.3876 2.091613,-2.59408 -0.184235,-0.18423 -1.633011,-0.60316 -4.22184,-1.22078 -0.571688,-0.13639 -1.347954,-0.34127 -1.725033,-0.4553 -0.501237,-0.15156 -1.034849,-0.14944 -1.984375,0.008 -0.714327,0.11836 -1.737278,0.25446 -2.273226,0.30245 -0.800245,0.0716 -0.994053,0.16033 -1.084101,0.49601 -0.223083,0.83163 -0.106503,1.43768 0.376685,1.95818 0.270319,0.2912 0.618416,0.77441 0.773544,1.07381 0.253828,0.48988 0.249504,0.61652 -0.04319,1.2656 -0.590894,1.31037 -1.968672,1.60212 -3.00971,0.63731 -0.381778,-0.35382 -0.479999,-0.62517 -0.479999,-1.32607 0,-0.76573 0.0867,-0.96065 0.661458,-1.4871 0.518393,-0.47483 0.661459,-0.75125 0.661459,-1.27802 0,-0.96851 -0.251069,-1.07969 -1.822008,-0.80683 -0.742247,0.12892 -2.060441,0.2963 -2.929316,0.37195 -2.27421,0.19801 -2.241235,0.16596 -2.241235,2.17849 0,1.64045 0.01744,1.70831 0.563718,2.19506 1.026134,0.91429 0.938149,2.49194 -0.175667,3.14989 -0.755044,0.44602 -1.398892,0.39867 -2.052016,-0.1509 -0.971561,-0.81751 -0.892387,-2.37667 0.158692,-3.1251 0.539221,-0.38396 0.560332,-0.45459 0.560332,-1.87488 0,-0.97898 -0.08256,-1.54442 -0.245213,-1.67941 -0.176216,-0.14624 -0.827625,-0.12269 -2.315105,0.0837 -2.20572,0.30606 -3.150102,0.33254 -5.849654,0.16406 l -1.700893,-0.10616 -2.880402,2.22842 c -1.584219,1.22564 -3.285111,2.52544 -3.77976,2.88844 -0.494649,0.36301 -1.635221,1.23471 -2.534606,1.93713 -0.899384,0.70241 -1.749832,1.27429 -1.889881,1.27083 -0.140049,-0.004 -0.455409,-0.17355 -0.700797,-0.37798 z m 22.839214,-2.35361 c 0.133768,-0.16118 0.182399,-0.48356 0.114036,-0.75595 -0.149887,-0.59719 -0.945089,-0.65907 -1.245929,-0.0969 -0.425746,0.79551 0.561888,1.53971 1.131893,0.8529 z m 15.98503,0.011 c 0.56062,-0.56062 0.110236,-1.32571 -0.711803,-1.20918 -0.768295,0.10891 -0.612685,1.47916 0.167978,1.47916 0.150612,0 0.395333,-0.12149 0.543825,-0.26998 z m -45.473771,-2.64892 c 0.124651,-0.15019 0.198848,-0.46911 0.164883,-0.7087 -0.05105,-0.3601 -0.176429,-0.43563 -0.723212,-0.43563 -0.546785,0 -0.672166,0.0755 -0.723214,0.43563 -0.07393,0.52151 0.265117,0.98179 0.723214,0.98179 0.182431,0 0.433681,-0.12289 0.558329,-0.27309 z m 37.540771,-0.20033 c 0.392391,-0.59887 0.09496,-1.03849 -0.702598,-1.03849 -0.469625,0 -0.543825,0.0722 -0.543825,0.52917 0,0.99769 0.730766,1.29631 1.246423,0.50932 z m -2.674572,-8.07307 c 0.270087,-0.3856 0.265044,-0.44913 -0.06157,-0.77574 -0.648745,-0.64874 -1.580181,0.0254 -1.148792,0.83145 0.26121,0.48807 0.848408,0.46105 1.210358,-0.0557 z m 21.282478,-7.86605 c 0.485073,-0.39278 0.414472,-0.83474 -0.184561,-1.15533 -0.77493,-0.41473 -1.421511,0.85851 -0.690247,1.35924 0.298206,0.2042 0.400179,0.18043 0.874808,-0.20391 z"
       id="path3758"
       inkscape:connector-curvature="0" />
    <path
       style="fill:#ececec;stroke-width:0.1889881"
       d="m 57.181144,140.60083 c -4.386122,-4.49639 -5.340614,-5.38616 -5.777915,-5.38616 -1.036375,0 -1.574787,-0.43692 -1.942579,-1.5764 -0.177456,-0.54978 0.447966,-1.63868 1.127239,-1.9626 0.751065,-0.35816 1.4551,-0.2105 2.10765,0.44206 0.42178,0.42178 0.468471,0.59894 0.394126,1.49544 l -0.08434,1.01699 2.228426,2.32388 2.22843,2.32387 2.60559,-2.69397 c 1.951649,-2.01784 2.721057,-2.69374 3.065661,-2.69308 0.25304,5.3e-4 0.933397,-0.12142 1.511906,-0.27091 1.137618,-0.29397 3.784483,-0.88512 5.562581,-1.24235 1.032135,-0.20736 1.128334,-0.2721 1.38852,-0.93447 0.189865,-0.48335 0.487945,-0.81106 0.929072,-1.02141 0.81866,-0.3904 1.035716,-0.3878 1.754737,0.021 1.082498,0.61544 1.225609,2.3087 0.259364,3.06875 -0.638641,0.50236 -1.744322,0.49755 -2.390066,-0.0104 -0.420855,-0.33104 -0.590622,-0.36055 -1.112171,-0.19336 -0.525711,0.16854 -3.863957,0.92259 -6.988498,1.57859 -0.777721,0.16328 -1.105437,0.40672 -2.55134,1.89522 -0.91245,0.93933 -1.977917,2.02095 -2.367703,2.4036 -0.38979,0.38265 -0.708025,0.77268 -0.707192,0.86673 0.0028,0.31371 3.963667,4.25876 4.156319,4.13969 0.104327,-0.0645 0.444457,-0.63073 0.755848,-1.25833 0.517038,-1.04211 0.555842,-1.25212 0.447241,-2.42062 -0.105886,-1.1393 -0.0753,-1.32313 0.279083,-1.67751 0.541491,-0.54149 1.24829,-0.68767 2.096396,-0.43357 0.557589,0.16705 0.782844,0.37502 1.0515,0.97079 0.331742,0.73568 0.331208,0.77831 -0.01802,1.43558 -0.374875,0.70555 -1.109126,1.21036 -1.760474,1.21036 -0.290299,0 -0.582888,0.40852 -1.240581,1.73212 -0.954027,1.91997 -1.168813,2.23663 -1.517066,2.23663 -0.130717,0 -2.602005,-2.42377 -5.49175,-5.38616 z"
       id="path3760"
       inkscape:connector-curvature="0" />
    <path
       style="fill:#ececec;stroke-width:0.1889881"
       d="m 56.702095,145.90585 c -0.05417,-0.0542 -0.646303,-0.22231 -1.315844,-0.37364 -1.944177,-0.43943 -5.890501,-1.41474 -6.509017,-1.60868 -0.31183,-0.0978 -1.502455,-0.39575 -2.645834,-0.66217 -1.143378,-0.26642 -2.334003,-0.56408 -2.645833,-0.66146 -0.31183,-0.0974 -1.502455,-0.39709 -2.645833,-0.66603 -1.143379,-0.26894 -2.504094,-0.60986 -3.023809,-0.75761 -0.519719,-0.14774 -1.214488,-0.32165 -1.543934,-0.38646 -0.450181,-0.0886 -1.446871,-0.96007 -4.011798,-3.50794 -3.302312,-3.28035 -3.437718,-3.39011 -4.18234,-3.39011 -0.867693,0 -1.780479,-0.40076 -1.956289,-0.85891 -0.181811,-0.47379 -0.138705,-1.58297 0.07719,-1.98638 0.239506,-0.44752 1.146368,-0.93447 1.740291,-0.93447 0.242962,0 0.73619,0.24592 1.096066,0.54649 0.592929,0.49521 0.653047,0.63598 0.64076,1.50033 l -0.01355,0.95384 3.256957,3.25297 c 3.183329,3.17943 3.2819,3.25856 4.360286,3.50061 0.60683,0.1362 1.783683,0.42548 2.615232,0.64283 0.831548,0.21736 2.022173,0.51568 2.645833,0.66294 0.62366,0.14726 3.302566,0.81316 5.953125,1.47978 5.181581,1.30318 6.425594,1.56119 6.425594,1.33268 0,-0.0802 -2.247887,-2.38391 -4.995307,-5.11929 -4.919141,-4.89759 -5.007218,-4.97342 -5.776561,-4.97342 -1.386279,0 -2.066226,-0.59 -2.06911,-1.79539 -0.0019,-0.80165 0.367284,-1.41694 1.064046,-1.77327 0.672097,-0.34371 1.261972,-0.24483 1.945984,0.32621 0.578522,0.48297 0.642186,0.63191 0.629502,1.47273 l -0.01413,0.93542 6.032751,6.03489 c 6.214692,6.2169 6.613832,6.71961 5.443593,6.85608 -0.26375,0.0308 -0.523864,0.0116 -0.578035,-0.0426 z M 28.633823,132.33522 c 0.161986,-0.25872 0.12093,-0.4126 -0.194149,-0.72767 -0.331062,-0.33107 -0.468331,-0.36278 -0.800576,-0.18497 -0.389072,0.20823 -0.548227,0.93603 -0.266332,1.21793 0.233558,0.23355 1.046975,0.0366 1.261057,-0.30529 z m 16.0035,0.0216 c 0.176408,-0.32962 0.148048,-0.46756 -0.159314,-0.77492 -0.298376,-0.29838 -0.450447,-0.33297 -0.752689,-0.17121 -0.524409,0.28065 -0.650483,0.71491 -0.307213,1.05818 0.409337,0.40934 0.967639,0.35803 1.219216,-0.11205 z"
       id="path3762"
       inkscape:connector-curvature="0" />
    <path
       style="fill:#ececec;stroke-width:0.1889881"
       d="m 39.985768,138.68335 c -0.352645,-0.38051 -0.463447,-0.70843 -0.463447,-1.37158 v -0.87152 l -4.724701,-4.72186 c -2.633462,-2.63188 -4.724702,-4.87068 -4.724702,-5.05807 0,-0.18491 0.191349,-0.41291 0.425223,-0.50666 0.233873,-0.0938 1.233148,-0.48535 2.22061,-0.87021 0.987462,-0.38486 2.042327,-0.8166 2.34414,-0.95941 0.784664,-0.37131 1.15724,-0.32447 1.743874,0.2192 0.442216,0.40984 0.630767,0.46177 1.307761,0.36025 0.888061,-0.13317 1.830157,0.23845 2.158146,0.8513 0.345966,0.64644 0.227541,1.65198 -0.261517,2.22054 -0.375833,0.43694 -0.607907,0.53026 -1.31862,0.53026 -1.17992,0 -1.913025,-0.70065 -1.884177,-1.80076 0.01661,-0.6341 -0.07063,-0.82365 -0.529606,-1.15047 -0.361704,-0.25755 -0.627976,-0.33159 -0.779087,-0.2166 -0.126267,0.0961 -0.909931,0.41321 -1.74148,0.70475 -0.831548,0.29154 -1.635344,0.64499 -1.786215,0.78544 -0.235527,0.21928 0.338968,0.86554 4.063243,4.57079 l 4.337556,4.31541 0.768985,-0.0773 c 0.625157,-0.0629 0.88143,0.0173 1.370166,0.42852 0.502539,0.42286 0.601175,0.63811 0.601175,1.31191 0,1.16924 -0.633126,1.80618 -1.795385,1.80618 -0.696418,0 -0.960319,-0.0991 -1.331942,-0.50007 z m 1.937425,-0.95074 c 0.245943,-0.37105 0.232904,-0.45113 -0.133014,-0.81705 -0.365919,-0.36592 -0.446003,-0.37896 -0.817052,-0.13302 -0.53108,0.35202 -0.605105,0.76273 -0.208883,1.15895 0.396221,0.39622 0.806934,0.3222 1.158949,-0.20888 z m -2.888798,-10.38117 c 0.176639,-0.0678 0.29894,-0.33692 0.29894,-0.65786 0,-0.42249 -0.105503,-0.56962 -0.474925,-0.66234 -0.86505,-0.21711 -1.447985,0.79877 -0.706252,1.23079 0.394335,0.22968 0.491143,0.23949 0.882237,0.0894 z"
       id="path3764"
       inkscape:connector-curvature="0" />
    <path
       style="fill:#ececec;stroke-width:0.1889881"
       d="m 72.457458,141.69026 c -1.256477,-0.62553 -1.231328,-2.59854 0.04085,-3.2052 0.451157,-0.21514 0.822145,-0.25508 1.351574,-0.14549 0.946404,0.19589 1.127987,0.1549 2.043282,-0.46133 0.420925,-0.28339 2.211075,-1.35671 3.978116,-2.38516 1.767038,-1.02844 3.255319,-1.91578 3.307292,-1.97185 0.10496,-0.11324 0.904586,-0.57157 1.842632,-1.05615 0.337817,-0.17451 0.614212,-0.39735 0.614212,-0.4952 0,-0.1597 -0.925605,-0.62102 -2.834823,-1.41288 -0.363802,-0.15088 -0.82046,-0.36233 -1.014796,-0.46989 -0.194339,-0.10756 -1.427485,-0.32143 -2.740329,-0.47527 -2.487817,-0.29153 -4.972405,-0.59843 -8.812583,-1.08852 -1.24732,-0.15918 -2.671818,-0.29208 -3.165549,-0.29532 l -0.897695,-0.006 v 0.65481 c 0,0.45397 -0.112119,0.71481 -0.365551,0.85045 -0.202012,0.10811 -1.548312,0.19563 -3.009309,0.19563 -2.546512,0 -2.664476,0.0174 -3.207036,0.47397 -0.496623,0.41788 -0.551363,0.56283 -0.462566,1.22486 0.18156,1.35364 -0.522219,2.26992 -1.743482,2.26992 -0.7082,0 -1.297081,-0.34499 -1.655816,-0.97005 -0.419298,-0.73058 -0.412737,-1.06295 0.03549,-1.79804 0.341678,-0.56034 1.591302,-1.19818 1.846818,-0.94266 0.139144,0.13914 0.743797,-0.18824 1.569548,-0.84983 0.642528,-0.51478 0.737574,-0.53204 3.212796,-0.58353 2.407004,-0.0501 2.550681,-0.0743 2.550681,-0.43104 0,-0.40991 0.180718,-0.36334 -3.659238,-0.94279 -1.077087,-0.16253 -2.32683,-0.46338 -2.777204,-0.66855 -0.450374,-0.20516 -0.885666,-0.37303 -0.967319,-0.37303 -0.149815,0 -1.730481,-0.59629 -2.830156,-1.06765 -0.32754,-0.1404 -0.714494,-0.25527 -0.859898,-0.25527 -0.145402,0 -0.345162,-0.0748 -0.443907,-0.16615 -0.09874,-0.0914 -0.519713,-0.26741 -0.935484,-0.39115 -0.415774,-0.12374 -0.926042,-0.29861 -1.13393,-0.38859 -1.558372,-0.67455 -2.250557,-0.94487 -2.433622,-0.9504 -0.116716,-0.004 -0.552389,-0.17073 -0.968163,-0.37156 -0.415775,-0.20084 -0.839354,-0.36804 -0.94129,-0.37157 -0.185446,-0.006 -1.77478,-0.6018 -2.834462,-1.06182 -0.392232,-0.17028 -0.600882,-0.18302 -0.688023,-0.042 -0.105894,0.17135 1.218015,1.28848 2.868337,2.42036 0.22733,0.15591 0.509215,0.37132 0.626407,0.47869 0.707511,0.64817 1.387874,0.99387 1.640924,0.83378 0.696574,-0.44072 2.047105,0.06 2.430307,0.90102 0.676904,1.48564 -0.73976,3.06661 -2.26993,2.53319 -0.849669,-0.2962 -1.291137,-0.93016 -1.298453,-1.86461 -0.0035,-0.44177 -0.08526,-0.8032 -0.181777,-0.8032 -0.09652,0 -0.287869,-0.11026 -0.425222,-0.24503 -0.137356,-0.13477 -1.227749,-0.96261 -2.423099,-1.83965 -1.195348,-0.87704 -2.258407,-1.66117 -2.362351,-1.7425 -0.103944,-0.0813 -0.934757,-0.71264 -1.846252,-1.40289 l -1.657265,-1.25502 -3.02019,0.99978 c -2.522445,0.83501 -3.020192,1.06033 -3.020192,1.3672 0,0.20208 -0.248592,0.61601 -0.552426,0.91985 -0.444079,0.44407 -0.716405,0.55242 -1.388494,0.55242 -1.125315,0 -1.665176,-0.47997 -1.790504,-1.59189 -0.0851,-0.75503 -0.03297,-0.90939 0.480529,-1.42289 0.445045,-0.44505 0.74041,-0.57462 1.299231,-0.56998 0.397782,0.003 0.888325,0.13087 1.090093,0.28348 0.201766,0.15261 0.509829,0.27747 0.684581,0.27747 0.324146,0 2.988503,-0.81505 3.673271,-1.12368 0.207886,-0.0937 0.866981,-0.31607 1.464657,-0.49415 1.031938,-0.30748 1.140618,-0.30682 2.157359,0.013 0.588873,0.18522 1.290492,0.45148 1.559153,0.59167 0.26866,0.1402 0.571875,0.25543 0.673809,0.25607 0.164269,0.001 1.604891,0.52679 2.649487,0.96693 0.471601,0.19871 4.837292,1.82871 5.858629,2.18741 0.415774,0.14602 1.02394,0.38926 1.351478,0.54053 0.327541,0.15127 0.666076,0.27504 0.752301,0.27504 0.140766,0 1.639839,0.55239 2.620925,0.96577 1.10781,0.46678 5.002019,1.84169 5.555062,1.96129 0.352756,0.0763 1.670947,0.25208 2.929316,0.39063 3.496495,0.385 6.938936,0.8095 7.674105,0.94634 0.363802,0.0677 1.681993,0.23684 2.929313,0.37583 5.171837,0.57629 7.212086,0.85528 7.748513,1.05956 0.640276,0.24383 1.534105,0.61899 2.645834,1.11051 1.710555,0.75628 2.13366,0.93728 3.307291,1.41485 0.675632,0.27493 1.760178,0.74798 2.410103,1.05123 0.649925,0.30326 1.232384,0.55137 1.294355,0.55137 0.06197,0 0.423182,0.13884 0.802695,0.30854 2.145015,0.95912 3.15353,1.39517 4.753264,2.05514 0.675632,0.27873 1.376095,0.58381 1.556586,0.67795 0.706654,0.36858 0.900258,0.21388 0.900258,-0.71937 0,-0.7888 0.08888,-0.98111 0.778004,-1.68326 0.83274,-0.84851 0.83457,-1.20596 0.006,-1.20596 -0.36246,0 -0.76535,-0.25359 -1.351116,-0.85045 -0.682585,-0.6955 -0.958456,-0.85044 -1.514181,-0.85044 -0.520555,0 -0.820846,-0.14581 -1.283568,-0.62321 -0.758307,-0.78238 -0.803442,-1.66742 -0.127246,-2.4951 0.401452,-0.49138 0.58806,-0.56696 1.399796,-0.56696 1.353857,0 1.808679,0.52964 1.808679,2.10623 0,0.97738 0.07524,1.24961 0.458166,1.65771 0.40959,0.43651 0.60097,0.48829 1.80484,0.48829 1.30951,0 1.80024,0.18459 1.80024,0.67719 0,0.12298 -0.59123,0.81134 -1.31385,1.52967 l -1.31385,1.30607 -0.0563,1.40908 -0.0563,1.40909 -0.58547,-0.0247 c -0.322005,-0.0136 -0.874796,-0.15712 -1.228423,-0.31893 -0.353623,-0.1618 -1.195747,-0.51913 -1.871379,-0.79405 -0.675632,-0.27493 -1.760178,-0.74798 -2.410103,-1.05124 -0.649922,-0.30325 -1.22864,-0.55137 -1.286036,-0.55137 -0.09424,0 -0.633524,-0.22731 -2.493219,-1.0509 -1.300567,-0.57597 -1.872081,-0.82472 -2.704862,-1.17728 l -0.86223,-0.36502 -2.82304,1.66046 c -1.55267,0.91325 -2.908083,1.7312 -3.012027,1.81766 -0.103945,0.0865 -0.401601,0.26734 -0.661459,0.40197 -0.779005,0.4036 -1.764308,0.96984 -2.290582,1.31636 -0.27236,0.17934 -1.065996,0.65621 -1.763639,1.05971 -0.697645,0.4035 -1.294278,0.82872 -1.325853,0.94494 -0.03158,0.11622 -0.155681,0.57307 -0.275786,1.01522 -0.178112,0.6557 -0.343151,0.85606 -0.895112,1.08669 -0.821537,0.34326 -0.939199,0.34015 -1.713296,-0.0452 z m 1.453164,-1.08035 c 0.502038,-0.60492 -0.235334,-1.53417 -0.890159,-1.12179 -0.450758,0.28387 -0.506037,0.72141 -0.137682,1.08977 0.379532,0.37953 0.730359,0.39046 1.027841,0.032 z m -15.961961,-8.49295 c 0,-0.7604 -0.516692,-1.06064 -1.028369,-0.59757 -0.213974,0.19364 -0.389041,0.44945 -0.389041,0.56846 0,0.38266 0.456404,0.68778 0.943613,0.63085 0.383712,-0.0448 0.473797,-0.15926 0.473797,-0.60174 z m 40.122173,-2.60973 c 0.569556,-0.56956 0.0042,-1.41254 -0.810194,-1.20813 -0.785177,0.19706 -0.542745,1.43491 0.281028,1.43491 0.166309,0 0.404434,-0.10205 0.529166,-0.22678 z m -48.161702,-2.31548 c 0.502039,-0.60492 -0.235333,-1.53416 -0.890159,-1.12178 -0.41988,0.26442 -0.522501,0.76777 -0.2287,1.12178 0.291915,0.35174 0.826947,0.35174 1.118859,0 z m -18.878848,-5.2129 c 0.46651,-0.24967 0.467979,-0.78701 0.0033,-1.20755 -0.288996,-0.26153 -0.441873,-0.28522 -0.755951,-0.11713 -0.484066,0.25906 -0.521854,1.04892 -0.06297,1.31619 0.414941,0.24168 0.380566,0.24132 0.815623,0.008 z"
       id="path3766"
       inkscape:connector-curvature="0" />
    <path
       style="fill:#ececec;stroke-width:0.1889881"
       d="m 101.46317,126.25704 c -0.9443,-0.88997 -1.464658,-1.52468 -1.464658,-1.78653 0,-0.64032 0.739848,-0.50181 1.628708,0.30492 0.42804,0.38849 1.06252,0.94826 1.40996,1.24394 l 0.63171,0.53759 1.07523,-0.32556 c 1.00086,-0.30303 1.13771,-0.30427 1.97825,-0.0179 1.17898,0.40172 1.22035,0.39708 1.88841,-0.21203 2.15737,-1.96701 2.788,-2.30163 3.05014,-1.61849 0.0898,0.23397 -0.29796,0.71107 -1.45912,1.79539 -1.74376,1.62836 -2.05642,1.73231 -3.52419,1.17177 -0.73486,-0.28065 -0.86999,-0.28065 -1.69363,0 -1.58046,0.53851 -1.89231,0.44169 -3.52081,-1.09312 z"
       id="path3768"
       inkscape:connector-curvature="0" />
    <path
       style="fill:#ececec;stroke-width:0.1889881"
       d="m 137.48028,141.74274 c -0.66956,-0.29126 -1.00706,-0.79084 -1.00706,-1.49066 0,-0.48597 -0.94044,-1.44664 -1.41617,-1.44664 -0.13928,0 -0.28158,-0.0671 -0.31623,-0.14901 -0.0532,-0.12593 -6.44601,-3.96321 -8.33775,-5.00476 -0.33423,-0.18402 -0.94786,-0.53731 -1.36364,-0.7851 -0.67366,-0.40147 -0.80738,-0.42275 -1.22842,-0.19542 -0.53065,0.2865 -1.23166,0.59138 -3.02381,1.31509 -0.67563,0.27284 -1.52607,0.62842 -1.88988,0.79017 -0.3638,0.16176 -0.91659,0.40544 -1.22842,0.54151 -0.31183,0.13607 -0.96626,0.42364 -1.45429,0.63904 -0.48803,0.2154 -0.93265,0.39163 -0.98804,0.39163 -0.0554,0 -0.76168,0.31036 -1.56952,0.68968 -0.80784,0.37932 -1.76646,0.69824 -2.13026,0.70871 l -0.66146,0.019 -0.0546,-1.42975 -0.0546,-1.42974 -1.3156,-1.30552 c -0.72357,-0.71803 -1.31559,-1.4111 -1.31559,-1.54016 0,-0.40399 0.68608,-0.62593 1.93488,-0.62593 1.11286,0 1.24926,-0.0469 1.80609,-0.62144 0.52854,-0.54531 0.58196,-0.69247 0.43606,-1.20119 -0.38794,-1.35265 0.39935,-2.4296 1.7761,-2.4296 1.16282,0 1.79538,0.61746 1.79538,1.7525 0,0.69173 -0.10139,0.93089 -0.58695,1.38447 -0.3809,0.35582 -0.7884,0.54829 -1.1608,0.54829 -0.40665,0 -0.86389,0.24779 -1.56931,0.85045 -0.61079,0.52182 -1.18032,0.85045 -1.47388,0.85045 -0.77133,0 -0.75611,0.31439 0.058,1.19759 0.66393,0.72028 0.7642,0.94406 0.7642,1.70561 0,0.75253 0.0538,0.87656 0.38054,0.87656 0.20929,0 0.52821,-0.0821 0.7087,-0.18236 0.18049,-0.1003 0.71087,-0.34575 1.17861,-0.54544 0.46775,-0.1997 1.24975,-0.54286 1.73778,-0.76258 0.48802,-0.21973 0.93428,-0.3995 0.99168,-0.3995 0.0574,0 0.63611,-0.24812 1.28604,-0.55137 0.64992,-0.30325 1.73447,-0.7748 2.4101,-1.04789 0.67563,-0.27309 1.39851,-0.57312 1.60639,-0.66674 0.20789,-0.0936 0.8032,-0.35392 1.32292,-0.57845 0.51972,-0.22453 1.20007,-0.51973 1.5119,-0.65598 4.91416,-2.14726 4.91012,-2.14596 7.60785,-2.45823 1.42863,-0.16538 3.59675,-0.41637 4.81804,-0.55776 1.22128,-0.1414 2.45443,-0.30697 2.74032,-0.36795 0.28589,-0.061 1.66791,-0.24202 3.07114,-0.40233 1.40324,-0.1603 3.58607,-0.41067 4.85073,-0.55638 2.45814,-0.28321 4.21721,-0.67397 5.09516,-1.13185 0.29863,-0.15574 0.67477,-0.28368 0.83589,-0.28432 0.16111,-5.3e-4 0.37372,-0.0783 0.47247,-0.17259 0.0987,-0.0943 0.47719,-0.25846 0.84099,-0.36483 0.59293,-0.17336 3.66571,-1.30969 4.63021,-1.71227 0.94166,-0.39305 2.47591,-0.96428 2.58994,-0.96428 0.0692,0 0.36519,-0.0983 0.6578,-0.21836 0.29262,-0.12009 0.91472,-0.36181 1.38247,-0.53714 0.46775,-0.17534 1.9135,-0.71691 3.2128,-1.2035 1.29929,-0.48659 2.53244,-0.96054 2.74033,-1.05321 0.20788,-0.0927 0.82257,-0.3194 1.36598,-0.50385 0.94198,-0.31974 1.03882,-0.32001 2.07887,-0.006 0.59997,0.18122 1.26095,0.4011 1.46884,0.48864 0.90074,0.37929 3.44062,1.1429 3.78316,1.1374 0.20602,-0.003 0.53966,-0.13087 0.74142,-0.28348 0.49047,-0.37097 1.4257,-0.35119 2.0007,0.0423 0.6641,0.45447 0.74461,0.61934 0.74786,1.53145 0.004,1.14038 -0.61038,1.73955 -1.7839,1.73955 -0.95405,0 -1.51058,-0.40005 -1.8296,-1.31518 -0.15715,-0.45079 -0.41346,-0.60429 -1.73305,-1.03783 -0.85174,-0.27983 -1.71871,-0.58015 -1.92659,-0.66737 -0.20789,-0.0872 -0.8247,-0.29556 -1.3707,-0.46299 -1.0286,-0.31542 -1.24394,-0.26567 -2.22008,0.51282 -0.97517,0.77773 -3.41031,2.57495 -4.20498,3.10343 -0.54571,0.3629 -0.99219,0.7366 -0.99219,0.83044 0,0.0938 -0.0849,0.17061 -0.18874,0.17061 -0.1038,0 -0.69911,0.39635 -1.32291,0.88077 -1.04033,0.80789 -1.13418,0.94151 -1.13418,1.61465 0,1.08586 -0.68474,1.75681 -1.79289,1.75681 -1.17859,0 -1.84754,-0.66546 -1.8318,-1.82224 0.009,-0.67338 0.11722,-0.91838 0.5925,-1.34331 0.60264,-0.53879 1.28756,-0.65756 1.90044,-0.32956 0.29279,0.1567 0.65326,-0.0345 2.04877,-1.08668 0.9314,-0.70226 1.88214,-1.4044 2.11274,-1.56032 0.9876,-0.66773 1.22147,-0.91913 1.03348,-1.11096 -0.12829,-0.13092 -0.37107,-0.10693 -0.75595,0.0747 -0.31183,0.14714 -1.9702,0.78099 -3.68527,1.40855 -1.71507,0.62756 -3.28839,1.22344 -3.49628,1.32419 -0.44364,0.215 -1.80088,0.70066 -2.74033,0.98057 -0.3638,0.10839 -0.7465,0.26444 -0.85044,0.34677 -0.10395,0.0823 -0.48665,0.23766 -0.85045,0.34517 -0.3638,0.10752 -1.42686,0.48793 -2.36235,0.84536 -1.10327,0.42153 -2.36492,0.73335 -3.59078,0.88747 -2.69603,0.33894 -3.0238,0.43253 -3.0238,0.86333 0,0.33922 0.18644,0.37287 2.55134,0.46045 1.81342,0.0672 2.67432,0.17597 2.97656,0.37619 0.23387,0.15494 0.42522,0.3441 0.42522,0.42037 0,0.21894 1.013,0.6729 1.28528,0.57597 0.40475,-0.14408 1.34479,0.34238 1.74344,0.90222 0.49871,0.70039 0.46917,1.47705 -0.0824,2.16647 -0.39658,0.49569 -0.57401,0.56697 -1.41122,0.56697 -1.36917,0 -1.81437,-0.48111 -1.82992,-1.97751 -0.01,-0.94509 -0.0825,-1.17578 -0.47259,-1.50048 -0.41588,-0.34615 -0.73002,-0.38431 -3.21076,-0.38998 -3.03511,-0.007 -3.20335,-0.0653 -3.20335,-1.11135 v -0.6515 l -1.94417,0.1257 c -1.0693,0.0691 -2.45128,0.21222 -3.07106,0.31798 -1.09922,0.18756 -3.62541,0.50719 -8.02494,1.01534 -1.19536,0.13807 -2.51355,0.39438 -2.92932,0.56958 -3.03715,1.2798 -3.49178,1.50662 -3.49411,1.74325 -10e-4,0.12094 0.57188,0.55624 1.2735,0.96733 0.70162,0.41109 2.13844,1.26888 3.19293,1.90621 1.0545,0.63734 2.00416,1.15879 2.11037,1.15879 0.10621,0 0.22145,0.0672 0.2561,0.14932 0.0346,0.0821 0.95882,0.67054 2.05372,1.30758 1.92906,1.12238 2.0142,1.15199 2.74907,0.95584 0.96716,-0.25815 1.70139,0.0661 2.20559,0.97403 0.34731,0.62542 0.34798,0.67086 0.0206,1.39683 -0.22791,0.50542 -0.53902,0.83421 -0.95303,1.0072 -0.74077,0.30951 -0.75557,0.30933 -1.50962,-0.0187 z m 1.34106,-1.22069 c 0.26153,-0.28899 0.28523,-0.44187 0.11713,-0.75595 -0.4148,-0.77506 -1.65599,-0.27636 -1.37195,0.55124 0.21761,0.63404 0.78284,0.72625 1.25482,0.20471 z m 15.87377,-7.87894 c 0.46597,-0.17881 0.36303,-0.92105 -0.16709,-1.20476 -0.37792,-0.20226 -0.52084,-0.20392 -0.75595,-0.009 -0.29441,0.24434 -0.3937,0.97251 -0.16394,1.20227 0.1572,0.1572 0.69227,0.16275 1.08698,0.0113 z m -39.99128,-3.61132 c 0.05,-0.51759 -0.0134,-0.62583 -0.42768,-0.72981 -0.55005,-0.13805 -1.04847,0.17637 -1.04847,0.66142 0,0.47521 0.41091,0.79374 0.94361,0.73149 0.38103,-0.0445 0.4853,-0.17437 0.53254,-0.6631 z m 48.11972,-1.86262 c 0.16334,-0.16334 0.29698,-0.36987 0.29698,-0.45897 0,-0.29082 -0.58562,-0.75595 -0.95178,-0.75595 -0.30034,0 -0.74911,0.49395 -0.74911,0.82452 0,0.19745 0.60617,0.68738 0.85045,0.68738 0.14107,0 0.39013,-0.13364 0.55346,-0.29698 z m 18.51888,-5.1094 c 0.38152,-0.1464 0.39254,-1.08424 0.0164,-1.3964 -0.22768,-0.18896 -0.37444,-0.17426 -0.75595,0.0757 -0.55364,0.36276 -0.59076,0.61453 -0.16064,1.0898 0.34035,0.37608 0.44913,0.40398 0.90019,0.23089 z"
       id="path3770"
       inkscape:connector-curvature="0" />
    <path
       style="fill:#ececec;stroke-width:0.1889881"
       d="m 148.35283,145.56176 c -0.12591,-0.23387 -0.56232,-1.09013 -0.96979,-1.90279 -0.40748,-0.81267 -0.8815,-1.52149 -1.05339,-1.57518 -1.25126,-0.39075 -1.72876,-0.71775 -1.9275,-1.31993 -0.28921,-0.87631 0.0534,-1.87417 0.77087,-2.24519 1.63888,-0.8475 3.17216,0.51318 2.62735,2.33159 -0.20647,0.68913 -0.17706,0.83771 0.39643,2.00262 0.34069,0.69204 0.70278,1.30977 0.80465,1.37273 0.21806,0.13477 4.10327,-3.7868 4.10153,-4.13991 -8e-4,-0.13246 -1.04245,-1.31967 -2.31511,-2.63826 -2.14589,-2.22334 -2.38253,-2.41153 -3.25885,-2.59173 -0.51972,-0.10686 -1.49773,-0.31865 -2.17336,-0.47063 -0.67564,-0.15198 -2.03635,-0.45756 -3.02382,-0.67906 -0.98746,-0.2215 -1.98673,-0.45033 -2.2206,-0.50851 -0.23388,-0.0582 -0.42523,-0.0245 -0.42523,0.0749 0,0.24817 -0.8604,0.61934 -1.43569,0.61934 -0.60876,0 -1.50886,-0.46582 -1.65971,-0.85892 -0.21038,-0.54825 -0.12376,-1.69373 0.15856,-2.0968 0.78954,-1.12722 2.47898,-0.95806 3.1275,0.31316 0.204,0.39987 0.47028,0.78844 0.59173,0.8635 0.12145,0.0751 0.99437,0.30124 1.93982,0.50261 0.94546,0.20138 2.22928,0.4834 2.85294,0.62672 0.62366,0.14333 1.72924,0.384 2.45685,0.53483 l 1.32291,0.27423 2.49872,2.56617 c 1.37429,1.41139 2.5347,2.56616 2.57868,2.56616 0.044,0 1.06556,-0.99927 2.27019,-2.22061 l 2.19022,-2.22061 -0.11535,-0.89438 c -0.13522,-1.04836 0.17933,-1.67071 1.07973,-2.13633 0.74444,-0.38496 1.70649,-0.10126 2.25133,0.66389 0.48176,0.67658 0.48204,1.21403 0.001,1.9923 -0.38432,0.62184 -0.82629,0.83971 -1.71296,0.84441 -0.372,0.002 -0.9665,0.50388 -2.52149,2.1287 -4.17568,4.36319 -8.50407,8.6462 -8.7378,8.6462 -0.13287,0 -0.34459,-0.19135 -0.4705,-0.42522 z"
       id="path3772"
       inkscape:connector-curvature="0" />
    <path
       style="fill:#ececec;stroke-width:0.1889881"
       d="m 153.79234,145.70497 c -0.0667,-0.17372 -0.12121,-0.36085 -0.12121,-0.41585 0,-0.055 2.72143,-2.81837 6.04762,-6.14085 l 6.04762,-6.04085 v -0.89512 c 0,-1.00555 0.34121,-1.50469 1.30012,-1.90188 0.67361,-0.27902 1.45053,-0.0576 2.02501,0.57723 0.40731,0.45007 0.44354,1.90826 0.057,2.29479 -0.49534,0.49534 -1.13151,0.73678 -1.79148,0.67992 -0.62345,-0.0537 -0.87103,0.16276 -5.65704,4.94621 -2.75278,2.75131 -5.00505,5.10929 -5.00505,5.23995 0,0.28075 0.25686,0.3041 0.71127,0.0647 0.18049,-0.0951 1.13609,-0.35656 2.12355,-0.58101 0.98747,-0.22445 2.22061,-0.5279 2.74033,-0.67433 0.51972,-0.14644 1.88043,-0.48629 3.02381,-0.75522 1.14338,-0.26894 2.334,-0.56898 2.64583,-0.66675 0.62448,-0.19581 4.71262,-1.2081 6.29389,-1.55847 0.95172,-0.21088 1.16833,-0.38781 4.29948,-3.51184 l 3.29726,-3.28976 0.004,-0.86769 c 0.005,-1.00511 0.36627,-1.5431 1.27815,-1.90267 0.53508,-0.21099 0.72215,-0.19916 1.35368,0.0856 0.41799,0.18849 0.77936,0.50398 0.84119,0.7344 0.16728,0.6234 0.13322,1.62048 -0.0682,1.99685 -0.25333,0.47335 -1.22567,0.83759 -1.88429,0.70587 -0.51193,-0.10239 -0.8056,0.14115 -4.05624,3.36377 -3.4723,3.44237 -3.51435,3.4761 -4.59691,3.68759 -0.6009,0.1174 -1.26264,0.28605 -1.47053,0.37479 -0.20788,0.0887 -1.39851,0.38898 -2.64583,0.66721 -1.24732,0.27822 -2.43795,0.57588 -2.64583,0.66146 -0.20789,0.0856 -1.39852,0.38323 -2.64584,0.66145 -1.24732,0.27823 -2.43795,0.58095 -2.64583,0.67272 -0.20789,0.0918 -0.8032,0.24608 -1.32292,0.34291 -1.28152,0.23877 -3.50543,0.78374 -3.96875,0.97254 -0.20788,0.0847 -0.88824,0.25523 -1.5119,0.37893 -0.62366,0.12371 -1.31326,0.2664 -1.53244,0.31711 -0.259,0.0599 -0.44094,-0.0184 -0.51972,-0.22368 z m 14.39308,-13.17394 c 0.61106,-0.61106 -0.33128,-1.65248 -0.99604,-1.10077 -0.29373,0.24377 -0.39258,0.97208 -0.16309,1.20157 0.20534,0.20534 0.91467,0.14366 1.15913,-0.1008 z m 16.09446,-0.13749 c 0.43987,-0.82192 -0.50262,-1.47763 -1.16779,-0.81246 -0.30811,0.30811 -0.33658,0.44603 -0.16013,0.77574 0.27214,0.50849 1.06371,0.53038 1.32792,0.0367 z"
       id="path3774"
       inkscape:connector-curvature="0" />
    <path
       style="fill:#ececec;stroke-width:0.1889881"
       d="m 168.99367,138.69415 c -0.75486,-0.63518 -0.80791,-1.68325 -0.12536,-2.47676 0.38874,-0.45194 0.5983,-0.53025 1.41892,-0.53025 h 0.96281 l 4.29248,-4.29553 c 3.29412,-3.29646 4.24069,-4.3473 4.06984,-4.51816 -0.12245,-0.12244 -1.04317,-0.54666 -2.04604,-0.94269 -1.75673,-0.69373 -1.83922,-0.7082 -2.25571,-0.39554 -0.31074,0.23328 -0.45634,0.57253 -0.51779,1.20647 -0.047,0.48507 -0.2237,1.02014 -0.39261,1.18904 -1.51721,1.51722 -4.0165,-0.10074 -3.13708,-2.03085 0.38321,-0.84106 1.73373,-1.34173 2.43035,-0.90099 0.19296,0.12208 0.47822,0.0103 0.97214,-0.38087 0.38447,-0.30451 0.80522,-0.55365 0.93499,-0.55365 0.21398,0 3.13891,1.08909 4.05638,1.51039 0.20789,0.0954 0.6969,0.3006 1.08669,0.45587 0.45061,0.1795 0.7087,0.40576 0.7087,0.62129 0,0.19079 -2.04489,2.3851 -4.67745,5.01925 l -4.67746,4.68026 v 0.95989 c 0,0.8174 -0.0787,1.02758 -0.53026,1.41599 -0.7344,0.63171 -1.7997,0.61798 -2.57354,-0.0332 z m 1.69881,-0.65131 c 0.47586,-0.25468 0.46886,-0.97185 -0.0124,-1.27241 -0.30222,-0.18874 -0.45373,-0.18874 -0.75595,0 -0.46618,0.29113 -0.49284,1.00439 -0.0473,1.26392 0.41494,0.24168 0.38057,0.24132 0.81562,0.008 z m 2.81487,-10.85109 c 0.2938,-0.35401 0.19118,-0.85736 -0.2287,-1.12178 -0.65483,-0.41238 -1.3922,0.51686 -0.89016,1.12178 0.29191,0.35174 0.82694,0.35174 1.11886,0 z"
       id="path3776"
       inkscape:connector-curvature="0" />
    <path
       style="fill:#ececec;stroke-width:0.1889881"
       d="m 169.77938,159.07441 c -0.21535,-0.1819 -0.62579,-0.50082 -0.91209,-0.7087 -0.2863,-0.20789 -1.80928,-1.35599 -3.3844,-2.55134 -1.57512,-1.19535 -3.09808,-2.34345 -3.38436,-2.55134 -0.28627,-0.20789 -1.04514,-0.78231 -1.68637,-1.27649 l -1.16588,-0.89852 -2.64583,0.11299 c -1.89496,0.0809 -3.26094,0.0299 -4.81326,-0.17973 -1.67906,-0.22676 -2.20005,-0.24138 -2.31221,-0.0649 -0.0796,0.12529 -0.14609,0.88624 -0.14768,1.691 -0.003,1.38729 0.0263,1.48925 0.56082,1.96547 1.02614,0.91429 0.93815,2.49195 -0.17566,3.1499 -0.80365,0.47472 -1.46957,0.40098 -2.10349,-0.23293 -0.45072,-0.45073 -0.55242,-0.71275 -0.55242,-1.42325 0,-0.7536 0.089,-0.95254 0.66146,-1.47789 0.65324,-0.59952 0.66146,-0.62639 0.66146,-2.16317 0,-1.88883 -0.14641,-2.03242 -2.26786,-2.22431 -0.77958,-0.0705 -2.09516,-0.24213 -2.92351,-0.38136 -0.82835,-0.13923 -1.57249,-0.21211 -1.65364,-0.16196 -0.0812,0.0502 -0.14755,0.46822 -0.14755,0.92903 0,0.6916 0.0984,0.9255 0.56371,1.34011 1.09662,0.97709 0.89831,2.50896 -0.40742,3.14728 -0.63432,0.31009 -0.75303,0.31474 -1.37697,0.054 -1.30087,-0.54354 -1.54967,-2.3351 -0.44441,-3.20009 0.50794,-0.39753 0.54848,-0.51702 0.49496,-1.45898 l -0.0583,-1.02599 -0.94494,-0.1243 c -0.51972,-0.0684 -1.58277,-0.21796 -2.36235,-0.33243 -1.15946,-0.17026 -1.58938,-0.15693 -2.36235,0.0732 -1.33852,0.39856 -3.03029,0.84284 -4.31764,1.13388 -0.60766,0.13738 -1.19369,0.33862 -1.30227,0.4472 -0.13724,0.13725 0.28597,0.71276 1.38832,1.88794 1.48585,1.584 1.63545,1.69187 2.37445,1.71209 1.1508,0.0315 1.95163,0.75028 1.95163,1.7517 0,0.41337 -0.0876,0.91519 -0.19459,1.11517 -0.23159,0.43274 -1.14035,0.93447 -1.69255,0.93447 -1.05591,0 -2.13218,-1.49726 -1.72254,-2.39632 0.23716,-0.52051 0.19805,-0.59474 -0.92603,-1.75776 -3.20212,-3.31303 -3.29389,-3.42363 -3.09818,-3.73389 0.18481,-0.29299 1.00943,-0.55892 3.19267,-1.02961 0.87238,-0.18807 1.60352,-0.60043 1.40616,-0.79306 -0.0458,-0.0447 -0.80612,-0.17113 -1.68964,-0.28098 -4.93906,-0.61408 -5.99684,-0.75616 -6.4256,-0.8631 -0.25985,-0.0648 -1.53552,-0.24113 -2.83481,-0.39181 -5.53381,-0.6418 -6.65693,-0.82852 -7.04366,-1.17099 -0.21065,-0.18655 -0.92316,-0.88135 -1.58336,-1.54401 l -1.20037,-1.20483 v -1.45045 c 0,-0.87614 0.0898,-1.54024 0.22679,-1.67724 0.13849,-0.13848 0.81383,-0.22678 1.73457,-0.22678 h 1.50778 l 1.43099,1.39225 1.43098,1.39224 2.64583,0.13564 c 1.45521,0.0746 2.98601,0.20738 3.40178,0.29507 0.41578,0.0877 1.84027,0.21959 3.16555,0.2931 2.11667,0.11741 2.4096,0.0977 2.4096,-0.16192 0,-0.16256 -0.12756,-0.42314 -0.28348,-0.57906 -0.15591,-0.15591 -0.28348,-0.3339 -0.28348,-0.39552 0,-0.33084 -1.04499,-1.61987 -1.39129,-1.71619 -0.22225,-0.0618 -0.57419,-0.18661 -0.78207,-0.2773 -2.10819,-0.91972 -2.23119,-0.94988 -3.39038,-0.83112 -1.07062,0.10969 -1.20486,0.0799 -1.76622,-0.39249 -0.50003,-0.42076 -0.60754,-0.64675 -0.60754,-1.27716 0,-0.61085 0.11914,-0.87979 0.58843,-1.32827 0.51773,-0.49477 0.68895,-0.55101 1.42508,-0.46804 1.05162,0.11854 1.51464,0.53197 1.67788,1.49818 0.11512,0.68137 0.21747,0.79627 1.00596,1.12931 0.48279,0.20392 1.04789,0.4465 1.25577,0.53907 0.20789,0.0926 0.68835,0.29177 1.06769,0.44268 0.55093,0.21916 0.93672,0.65258 1.91727,2.15399 0.67516,1.03379 1.35269,1.92764 1.50562,1.98633 0.15294,0.0587 1.62889,0.20028 3.27991,0.31466 1.65101,0.11438 3.68219,0.28943 4.51374,0.38901 3.19004,0.38198 3.27575,0.38377 3.58448,0.075 0.51205,-0.51206 1.51632,-0.6861 2.23245,-0.38688 1.27281,0.53181 1.43502,2.44444 0.26768,3.15621 -1.09541,0.66792 -2.22916,0.34463 -2.76211,-0.7876 -0.34303,-0.72875 0.0935,-0.64609 -6.25182,-1.18396 -1.92295,-0.163 -3.83645,-0.34492 -4.25223,-0.40425 -0.41577,-0.0593 -2.32928,-0.2323 -4.25223,-0.38435 -1.92296,-0.15205 -4.94204,-0.39872 -6.70908,-0.54814 -1.76703,-0.14942 -3.32816,-0.27597 -3.46917,-0.28122 -0.14101,-0.005 -0.87033,-0.60487 -1.62071,-1.33248 -1.3321,-1.29166 -1.38743,-1.32291 -2.34221,-1.32291 h -0.97788 v 0.90276 c 0,0.86476 0.0537,0.95552 1.27567,2.15592 l 1.27567,1.25316 1.41741,0.12162 c 0.77958,0.0669 1.80012,0.20172 2.26786,0.29962 0.46775,0.0979 1.91351,0.31296 3.2128,0.4779 1.29929,0.16494 3.29784,0.41939 4.44122,0.56545 1.14337,0.14606 3.05763,0.38693 4.2539,0.53527 1.19626,0.14835 2.68454,0.3576 3.30729,0.46501 0.62274,0.10741 1.72757,0.24751 2.45518,0.31135 0.7276,0.0638 1.70561,0.19545 2.17336,0.29249 0.78397,0.16264 2.52912,0.39755 7.74851,1.043 4.88004,0.6035 6.59081,0.83417 7.58045,1.02212 0.74519,0.14153 1.83108,0.14289 3.65334,0.005 l 2.59298,-0.19681 2.20244,1.65714 c 1.21133,0.91143 2.28876,1.72374 2.39427,1.80513 0.10552,0.0814 1.25491,0.95443 2.5542,1.94009 1.29929,0.98566 2.61453,2.00339 2.92276,2.26162 0.30822,0.25822 0.62066,0.4695 0.69429,0.4695 0.0736,0 0.86583,-0.44649 1.76042,-0.99219 0.89459,-0.5457 2.12278,-1.28984 2.72931,-1.65364 1.61298,-0.96748 1.72117,-1.08383 1.5949,-1.71517 -0.1098,-0.54903 0.14118,-1.10813 0.78764,-1.7546 0.48786,-0.48786 1.661,-0.39826 2.34737,0.17927 0.48603,0.40897 0.58147,0.62489 0.58147,1.31556 0,0.61134 -0.11062,0.93124 -0.42523,1.22977 -0.5833,0.55348 -1.24265,0.78245 -1.86167,0.64649 -0.50548,-0.11102 -0.89366,0.04 -2.09038,0.81313 -0.27666,0.17874 -1.21215,0.74612 -2.07887,1.26086 -0.86672,0.51473 -1.61837,0.98627 -1.67034,1.04787 -0.14918,0.17682 -1.51729,0.94557 -1.68278,0.94557 -0.0821,0 -0.32547,-0.14883 -0.54082,-0.33073 z m -36.40769,-2.59816 c 0.16856,-0.6716 -0.0279,-1.03986 -0.55467,-1.03986 -0.69073,0 -0.99717,0.46647 -0.68709,1.04588 0.34053,0.63628 1.08146,0.63269 1.24176,-0.006 z m 16.03083,0.11218 c 0.27721,-0.30633 0.28887,-0.41882 0.0783,-0.75596 -0.53109,-0.8504 -1.76329,-0.14581 -1.29036,0.73785 0.25524,0.47692 0.78958,0.48491 1.21204,0.0181 z m -8.01179,-2.67108 c 0.3218,-0.6013 0.0591,-1.12679 -0.56331,-1.12679 -0.74927,0 -1.00786,0.67352 -0.46645,1.21492 0.40511,0.40511 0.78309,0.37276 1.02976,-0.0881 z m 37.40719,0.11203 c 0.12464,-0.15019 0.19884,-0.46911 0.16488,-0.7087 -0.0482,-0.34015 -0.18151,-0.43563 -0.60813,-0.43563 -0.76039,0 -1.06063,0.51669 -0.59757,1.02837 0.41435,0.45785 0.72806,0.4928 1.04082,0.11596 z m -34.66465,-8.23805 c 0.33883,-0.37441 0.33769,-0.39506 -0.043,-0.77574 -0.67933,-0.67933 -1.63126,-0.0394 -1.18414,0.7961 0.25318,0.47308 0.78861,0.46419 1.22713,-0.0204 z m -21.63275,-7.74849 c 0.46567,-0.24922 0.4682,-0.78681 0.006,-1.20539 -0.30632,-0.27722 -0.41881,-0.28887 -0.75596,-0.0783 -0.48156,0.30074 -0.51799,1.01158 -0.0653,1.27522 0.41494,0.24169 0.38057,0.24133 0.81563,0.008 z"
       id="path3778"
       inkscape:connector-curvature="0" />
    <path
       style="fill:#ececec;stroke-width:0.1889881"
       d="m 123.85323,157.74268 c -0.79449,-0.61145 -1.25572,-1.92901 -0.77852,-2.22394 0.12674,-0.0783 -0.37248,-0.71349 -1.27168,-1.618 -1.36408,-1.37212 -1.5273,-1.48024 -2.07862,-1.37681 -1.696,0.31817 -2.8554,-1.82396 -1.67574,-3.09616 0.67198,-0.7247 1.94756,-0.72688 2.66987,-0.005 0.41705,0.41705 0.50376,0.66828 0.48922,1.41741 -0.017,0.8775 0.028,0.95679 1.24047,2.18619 1.21003,1.22688 1.29324,1.27567 2.17545,1.27567 0.76187,0 1.0109,0.0936 1.46973,0.55243 0.91719,0.91719 0.72581,2.36554 -0.38873,2.9419 -0.72076,0.37271 -1.31961,0.35522 -1.85145,-0.0541 z m 1.58096,-1.26643 c 0.16856,-0.6716 -0.0279,-1.03986 -0.55467,-1.03986 -0.69073,0 -0.99717,0.46647 -0.68708,1.04588 0.34052,0.63628 1.08145,0.63269 1.24175,-0.006 z m -5.5795,-5.20425 c 0.64588,-0.34566 0.34008,-1.31626 -0.4147,-1.31626 -0.75362,0 -1.07398,0.94819 -0.46196,1.36727 0.27557,0.18869 0.44747,0.17869 0.87666,-0.051 z"
       id="path3780"
       inkscape:connector-curvature="0" />
    <path
       style="fill:#ececec;stroke-width:0.1889881"
       d="m 108.25099,179.31189 c -0.0693,-0.0693 -0.12599,-4.73709 -0.12599,-10.37287 v -10.24687 l 1.27269,-2.43108 1.27269,-2.43108 0.0975,-3.02381 c 0.131,-4.06366 0.059,-4.05565 3.69636,-0.41153 l 2.73031,2.73543 1.32841,2.66506 c 0.80932,1.62365 1.43742,2.66506 1.60736,2.66506 0.15341,0 0.27894,0.0851 0.27894,0.18899 0,0.10394 0.10071,0.18899 0.22381,0.18899 0.1231,0 0.56958,0.16278 0.99219,0.36173 0.69015,0.32491 1.49681,0.68431 3.22522,1.43695 0.31183,0.13579 1.23364,0.55204 2.04846,0.925 0.81483,0.37296 1.52164,0.67811 1.57069,0.67811 0.049,0 0.8119,0.34017 1.69522,0.75595 0.88333,0.41577 1.65656,0.75595 1.71831,0.75595 0.0617,0 0.67329,0.26315 1.35899,0.58479 0.68569,0.32163 1.54438,0.7156 1.90818,0.8755 1.72301,0.75727 2.27693,1.00563 3.65486,1.63876 0.81483,0.37439 1.52172,0.68071 1.57086,0.68071 0.0491,0 0.55524,0.2204 1.12466,0.48978 0.56943,0.26938 1.15947,0.44214 1.31122,0.38391 0.40317,-0.15471 0.41228,-8.20376 0.009,-8.35833 -0.40079,-0.1538 -2.55371,0.91041 -2.56165,1.26625 -0.0108,0.48701 -0.56672,1.46738 -1.00677,1.7756 -1.16242,0.81419 -2.77971,-0.0703 -2.77971,-1.5202 0,-1.49298 1.33865,-2.37147 2.63113,-1.72669 0.55594,0.27734 0.63036,0.25741 2.46999,-0.66158 1.04323,-0.52115 2.0244,-0.89858 2.18037,-0.83872 0.24504,0.094 0.27679,0.8867 0.23357,5.83058 -0.0584,6.68412 0.12753,6.27354 -2.33004,5.14408 -1.51901,-0.69811 -2.39856,-1.0912 -3.76761,-1.68383 -1.06214,-0.45977 -2.06534,-0.91033 -3.54403,-1.59168 -0.7019,-0.32342 -1.32201,-0.58804 -1.37804,-0.58804 -0.056,0 -0.67238,-0.26288 -1.36966,-0.58418 -2.44339,-1.12589 -4.12546,-1.88319 -5.61452,-2.52777 -1.06214,-0.45977 -2.06534,-0.91032 -3.54403,-1.59168 -0.7019,-0.32342 -1.32373,-0.58804 -1.38187,-0.58804 -0.0581,0 -0.54691,-0.2092 -1.08617,-0.46489 -0.96984,-0.45984 -0.99526,-0.49423 -2.34074,-3.16555 -1.28455,-2.55034 -1.46747,-2.80848 -3.28629,-4.63779 -1.05932,-1.06541 -2.04179,-1.93712 -2.18327,-1.93712 -0.19974,0 -0.25724,0.41973 -0.25724,1.87753 v 1.87753 l -1.32292,2.57604 -1.32292,2.57604 v 10.2875 10.2875 h -0.44097 c -0.24253,0 -0.49767,-0.0567 -0.56696,-0.12599 z m 30.63521,-17.4499 c 0.33782,-0.54094 -0.0699,-1.16709 -0.71209,-1.09354 -0.48276,0.0553 -0.71563,0.62254 -0.49335,1.20178 0.15266,0.39783 0.93316,0.32775 1.20544,-0.10824 z"
       id="path3782"
       inkscape:connector-curvature="0" />
    <path
       style="fill:#ececec;stroke-width:0.1889881"
       d="m 148.26039,167.90961 c 0,-1.09141 0.0312,-1.53789 0.0694,-0.99219 0.0382,0.5457 0.0382,1.43867 0,1.98438 -0.0382,0.5457 -0.0694,0.0992 -0.0694,-0.99219 z"
       id="path3784"
       inkscape:connector-curvature="0" />
    <path
       style="fill:#ececec;stroke-width:0.1889881"
       d="m 164.31407,170.74311 c -0.49129,-0.19795 -0.8457,-0.79855 -0.99269,-1.68231 -0.0949,-0.57048 -0.36659,-0.82419 -2.37461,-2.21734 -1.2471,-0.86523 -2.3525,-1.6384 -2.45644,-1.71816 -0.10394,-0.0798 -0.57169,-0.40014 -1.03944,-0.71197 -0.46774,-0.31183 -0.96282,-0.67327 -1.10018,-0.8032 -0.34995,-0.33104 -0.7897,-0.29432 -0.7897,0.0659 0,0.16619 0.11983,0.57015 0.26629,0.89769 0.14646,0.32754 0.49896,1.36093 0.78334,2.29642 0.28438,0.93549 0.58978,1.78169 0.67866,1.88043 0.0889,0.0987 0.16159,0.41767 0.16159,0.70871 v 0.52916 h -4.53571 -4.53571 v -1.8551 -1.85511 l -0.66146,-0.58561 c -0.58667,-0.51939 -0.66146,-0.69056 -0.66146,-1.51373 0,-0.71891 0.0958,-1.0176 0.42522,-1.32504 0.62833,-0.58649 1.32556,-0.69766 2.09266,-0.33364 1.23731,0.58714 1.3982,2.22281 0.31369,3.18911 -0.50539,0.45031 -0.56371,0.61785 -0.56371,1.61929 0,1.82118 -0.21209,1.71489 3.422,1.71489 3.06186,0 3.19258,-0.0154 3.19258,-0.3763 0,-0.3377 -0.73202,-2.72264 -1.13165,-3.68694 -0.20733,-0.50028 -0.72958,-2.08639 -0.98631,-2.99548 -0.16497,-0.58419 -0.15343,-0.76076 0.0585,-0.89571 0.36385,-0.23163 0.47516,-0.17522 2.62872,1.33231 1.04533,0.73175 1.97561,1.33046 2.0673,1.33046 0.0917,0 0.19506,0.0638 0.22971,0.14174 0.0346,0.078 0.44569,0.39663 0.91344,0.70817 0.46775,0.31154 0.89297,0.60944 0.94494,0.66199 0.052,0.0526 0.4772,0.34758 0.94494,0.65561 0.46775,0.30803 1.17515,0.80852 1.57201,1.11221 0.67259,0.51469 0.77106,0.53733 1.45095,0.33363 1.55373,-0.4655 2.7731,0.82527 2.2931,2.42737 -0.30181,1.00736 -1.44053,1.42196 -2.61062,0.95052 z m 1.60359,-1.52676 c 0.0685,-0.5894 -0.37056,-1.00461 -0.88851,-0.84022 -0.88737,0.28164 -0.58726,1.49381 0.34307,1.38567 0.3664,-0.0426 0.50285,-0.17905 0.54544,-0.54545 z m -16.43682,-4.72663 c 0.21055,-0.33714 0.19889,-0.44963 -0.0783,-0.75595 -0.64188,-0.70926 -1.52066,-0.19672 -1.27479,0.7435 0.14354,0.54889 1.0131,0.55689 1.35311,0.0125 z"
       id="path3786"
       inkscape:connector-curvature="0" />
    <path
       style="fill:#ececec;stroke-width:0.1889881"
       d=""
       id="path3788"
       inkscape:connector-curvature="0" />
    <path
       style="fill:#ececec;stroke-width:0.1889881"
       d="m 166.31879,165.4673 c -0.44055,-0.44056 -0.55242,-0.71823 -0.55242,-1.37116 0,-0.81518 -0.007,-0.82404 -1.71338,-2.04616 -1.39423,-0.99879 -3.8767,-2.82817 -4.80671,-3.54215 -0.83929,-0.64434 -1.2515,-0.80453 -1.5959,-0.62021 -0.62477,0.33436 -1.30463,0.215 -1.92317,-0.33767 -0.48329,-0.43182 -0.59572,-0.67724 -0.59572,-1.30045 0,-1.74187 1.73896,-2.57007 3.06085,-1.45777 0.4738,0.39868 0.58299,0.63489 0.58966,1.27567 l 0.008,0.7864 2.48421,1.79539 c 1.36632,0.98746 3.04226,2.21854 3.72433,2.73572 1.14568,0.86873 1.32311,0.94125 2.32989,0.95233 0.92663,0.0102 1.16711,0.0893 1.6064,0.52871 0.41449,0.41456 0.51312,0.68074 0.49889,1.34645 -0.0356,1.66729 -1.93683,2.43317 -3.11511,1.2549 z m 1.86663,-0.80829 c 0.61106,-0.61106 -0.33128,-1.65248 -0.99604,-1.10077 -0.29373,0.24376 -0.39258,0.97208 -0.16309,1.20156 0.20534,0.20535 0.91467,0.14367 1.15913,-0.10079 z m -10.74316,-7.98379 c 0.38384,-0.4625 0.16739,-1.13686 -0.38552,-1.20113 -0.68404,-0.0795 -1.04946,0.39753 -0.77161,1.00733 0.23626,0.51855 0.80813,0.61432 1.15713,0.1938 z"
       id="path3790"
       inkscape:connector-curvature="0" />
    <path
       style="fill:#ececec;stroke-width:0.1889881"
       d="m 174.2354,150.3936 c 0.13642,-0.0546 0.29943,-0.0479 0.36223,0.0149 0.0628,0.0628 -0.0488,0.10747 -0.24805,0.0993 -0.22016,-0.009 -0.26494,-0.0538 -0.11418,-0.11418 z"
       id="path3792"
       inkscape:connector-curvature="0" />
    <path
       style="fill:#ececec;stroke-width:0.1889881"
       d="m 175.36933,150.01563 c 0.13642,-0.0546 0.29942,-0.0479 0.36222,0.0149 0.0628,0.0628 -0.0488,0.10746 -0.24804,0.0993 -0.22016,-0.009 -0.26494,-0.0538 -0.11418,-0.11418 z"
       id="path3794"
       inkscape:connector-curvature="0" />
    <path
       style="fill:#ececec;stroke-width:0.1889881"
       d="m 176.20796,148.69153 c 0.1819,-0.0475 0.47956,-0.0475 0.66146,0 0.1819,0.0475 0.0331,0.0864 -0.33073,0.0864 -0.3638,0 -0.51263,-0.0389 -0.33073,-0.0864 z"
       id="path3796"
       inkscape:connector-curvature="0" />
    <path
       style="fill:#ececec;stroke-width:0.1889881"
       d=""
       id="path3798"
       inkscape:connector-curvature="0" />
    <path
       style="fill:#ececec;stroke-width:0.1889881"
       d="m 179.8992,160.3019 c -0.79341,-0.65525 -0.98148,-1.36989 -0.57723,-2.19337 0.29318,-0.59722 0.59609,-0.83181 1.72361,-1.33491 0.14006,-0.0625 0.67439,-0.89804 1.18739,-1.85675 l 0.93273,-1.74312 -0.0535,-2.12872 -0.0535,-2.12873 -0.94494,0.042 c -0.51972,0.0231 -1.2426,0.12374 -1.6064,0.22365 -0.3638,0.0999 -2.31983,0.44633 -4.34672,0.76982 -7.12273,1.13679 -6.45738,0.9806 -6.79672,1.59556 -0.37152,0.67329 -1.54255,1.32113 -2.07982,1.15061 -0.21226,-0.0674 -0.6406,-0.33678 -0.95187,-0.59869 -0.76058,-0.64 -0.79935,-1.80116 -0.0858,-2.57066 0.64414,-0.69469 1.9156,-0.73154 2.6229,-0.076 0.46755,0.4333 0.50656,0.43725 2.04135,0.20622 2.02637,-0.30501 5.80914,-0.92019 8.08479,-1.31481 5.29511,-0.91822 4.61293,-1.04751 6.99256,1.32529 1.94121,1.93562 2.00336,1.97877 2.85659,1.98303 1.53231,0.008 2.34683,1.10518 1.8769,2.52908 -0.15443,0.46791 -0.41005,0.72639 -0.96661,0.97735 -0.70709,0.31886 -0.79897,0.32103 -1.40277,0.0331 -0.79582,-0.3795 -1.30896,-1.29863 -1.15494,-2.06872 0.0994,-0.49712 -0.0294,-0.70658 -1.14654,-1.8637 -0.69222,-0.71701 -1.4147,-1.30365 -1.60554,-1.30365 -0.31517,0 -0.34696,0.18667 -0.34696,2.03682 0,1.40888 -0.0793,2.15175 -0.25709,2.4096 -0.1414,0.20503 -0.57083,0.95675 -0.95428,1.67049 -0.63578,1.18339 -0.6714,1.32622 -0.40438,1.62128 0.16771,0.18532 0.29283,0.6666 0.29283,1.12643 0,1.60145 -1.68187,2.46782 -2.8761,1.48154 z m 1.64767,-1.46372 c 0,-0.57702 -0.0647,-0.66894 -0.507,-0.72003 -0.35563,-0.0411 -0.56852,0.0564 -0.71303,0.32637 -0.29732,0.55556 0.12396,1.18064 0.74757,1.10923 0.40366,-0.0462 0.47246,-0.15044 0.47246,-0.71557 z m 8.02996,-4.81674 c 0.13377,-0.16119 0.1824,-0.48357 0.11404,-0.75596 -0.0937,-0.37351 -0.23873,-0.47492 -0.67896,-0.47492 -0.44024,0 -0.58522,0.10141 -0.67897,0.47492 -0.13666,0.5445 0.1858,1.03699 0.67897,1.03699 0.18243,0 0.43664,-0.12647 0.56492,-0.28103 z m -21.46037,-2.72924 c 0.51787,-0.57224 0.22952,-1.18406 -0.52361,-1.111 -0.45916,0.0445 -0.6124,0.1592 -0.65981,0.49365 -0.0672,0.4741 0.25472,0.98178 0.62257,0.98178 0.12707,0 0.37946,-0.16399 0.56085,-0.36443 z"
       id="path3800"
       inkscape:connector-curvature="0" />
    <path
       style="fill:#ececec;stroke-width:0.1889881"
       d="m 169.73512,169.63149 c 0,-0.28387 1.51113,-2.81401 2.21357,-3.70626 0.42471,-0.53948 1.18822,-1.81196 1.18822,-1.98032 0,-0.10617 0.0638,-0.19358 0.14174,-0.19424 0.0779,-5.3e-4 0.28454,-0.25218 0.45907,-0.55895 0.2536,-0.44571 0.27628,-0.66655 0.11289,-1.0994 -0.24452,-0.64781 -0.0973,-1.2894 0.44303,-1.93123 0.32234,-0.38287 0.56948,-0.47246 1.3032,-0.47246 0.74902,0 0.99019,0.0915 1.39611,0.52945 1.12659,1.21561 0.27165,3.15581 -1.39059,3.15581 -0.56698,0 -0.80934,0.0892 -0.89845,0.33073 -0.0671,0.1819 -0.17369,0.37325 -0.23684,0.42522 -0.0632,0.052 -0.44032,0.60477 -0.83816,1.22843 -0.39784,0.62366 -0.88779,1.36962 -1.08879,1.65769 -0.43609,0.62501 -0.31505,0.94404 0.27275,0.71889 0.42466,-0.16267 2.5132,-1.11601 4.57627,-2.08891 2.6859,-1.26661 4.02792,-1.88827 4.91369,-2.27614 2.26114,-0.99013 2.17336,-0.92085 2.17336,-1.71535 0,-1.68302 2.00904,-2.59403 3.16698,-1.43609 0.38552,0.38552 0.48679,0.67233 0.48679,1.3786 0,1.28052 -0.60636,1.77693 -2.17049,1.77693 -0.62782,0 -1.36721,0.1196 -1.64311,0.26578 -0.49267,0.26104 -2.41698,1.16185 -4.28139,2.00421 -0.51972,0.23482 -1.54025,0.70596 -2.26786,1.04699 -0.7276,0.34103 -1.70561,0.79005 -2.17336,0.99782 -0.46775,0.20778 -1.77124,0.81022 -2.89666,1.33878 -2.21069,1.03825 -2.96197,1.19146 -2.96197,0.60402 z"
       id="path3802"
       inkscape:connector-curvature="0" />
    <path
       style="fill:#ececec;stroke-width:0.1889881"
       d="m 104.94272,155.1169 c -1.18008,-0.58147 -1.32566,-1.98448 -0.314,-3.02616 l 0.66146,-0.68108 v -6.00491 -6.00491 l -0.44246,-0.34804 c -2.00619,-1.57807 -0.30975,-4.3465 1.94801,-3.17896 1.13551,0.58719 1.13277,2.11385 -0.006,3.15818 l -0.5549,0.50906 v 5.95943 5.95942 l 0.45619,0.2989 c 0.2509,0.1644 0.59661,0.59483 0.76823,0.9565 0.41495,0.87443 0.11681,1.8452 -0.72419,2.35801 -0.72132,0.43984 -0.9775,0.4462 -1.79263,0.0446 z"
       id="path3804"
       inkscape:connector-curvature="0" />
    <path
       style="fill:#ececec;stroke-width:0.1889881"
       d=""
       id="path3806"
       inkscape:connector-curvature="0" />
    <path
       style="fill:#ececec;stroke-width:0.1889881"
       d="m 102.35652,179.20165 c -0.0478,-0.12993 -0.10896,-4.90663 -0.13581,-10.61489 -0.0381,-8.09993 -0.1007,-10.39594 -0.28507,-10.45735 -0.12993,-0.0433 -0.23623,-0.1694 -0.23623,-0.28028 0,-0.27627 -1.00538,-2.30311 -1.18118,-2.38124 -0.078,-0.0346 -0.14174,-0.16347 -0.14174,-0.28628 0,-0.12281 -0.17009,-0.54063 -0.377978,-0.92851 -0.30199,-0.56345 -0.377976,-1.06628 -0.377976,-2.50129 0,-1.32564 -0.06284,-1.79607 -0.239937,-1.79607 -0.131964,0 -1.10457,0.87182 -2.16135,1.93739 -1.822881,1.83804 -1.989958,2.07547 -3.258119,4.63008 -1.474721,2.97069 -1.101063,2.60206 -3.884493,3.83224 -0.415772,0.18375 -1.423927,0.64103 -2.240341,1.01617 -0.816414,0.37513 -1.688121,0.73319 -1.937128,0.79569 -0.249005,0.0625 -0.45274,0.18023 -0.45274,0.26164 0,0.0814 -0.219442,0.20309 -0.487648,0.27041 -0.268208,0.0673 -1.054872,0.38367 -1.748142,0.70302 -1.466574,0.67556 -2.471917,1.12697 -3.528345,1.58427 -1.364012,0.59045 -2.246747,0.98487 -3.74936,1.67528 -0.814827,0.37439 -1.521111,0.68071 -1.569522,0.68071 -0.04841,0 -0.487312,0.18141 -0.975342,0.40314 -0.488029,0.22172 -1.525158,0.69054 -2.304735,1.04182 -0.779576,0.35128 -1.658175,0.76518 -1.952442,0.91979 -0.29427,0.15459 -0.740754,0.28109 -0.992188,0.28109 h -0.457155 v -5.77007 c 0,-4.67577 0.04849,-5.78868 0.25568,-5.86819 0.140624,-0.054 1.114074,0.33943 2.163221,0.8742 1.815192,0.92525 1.928362,0.95773 2.337707,0.67101 1.374209,-0.96253 3.168838,0.56865 2.619036,2.23456 -0.253447,0.76795 -0.906213,1.2439 -1.706001,1.2439 -0.865966,0 -1.455423,-0.48857 -1.78526,-1.47972 -0.263528,-0.79189 -0.405435,-0.93651 -1.38035,-1.40674 -0.597641,-0.28827 -1.19293,-0.52214 -1.322859,-0.51972 -0.181893,0.003 -0.236233,0.98728 -0.236233,4.27712 v 4.27272 l 0.51316,-0.1288 c 0.517202,-0.12981 1.097028,-0.37924 3.588591,-1.54374 0.748784,-0.34996 1.406014,-0.63629 1.460513,-0.63629 0.0545,0 0.760048,-0.30377 1.567889,-0.67504 1.467543,-0.67446 1.772912,-0.81125 3.547674,-1.58912 0.519716,-0.22779 1.285118,-0.56567 1.700892,-0.75084 0.415775,-0.18518 1.053608,-0.46793 1.41741,-0.62835 0.363802,-0.16041 1.316623,-0.59691 2.117379,-0.96999 0.800756,-0.37308 1.502148,-0.67833 1.558647,-0.67833 0.0565,0 0.634484,-0.24706 1.284409,-0.54901 0.649923,-0.30196 1.691947,-0.77107 2.315607,-1.04247 2.011111,-0.87516 2.002856,-0.86647 3.361076,-3.5393 1.26863,-2.49652 1.311659,-2.55282 4.063243,-5.31622 1.988535,-1.99708 2.88875,-2.77798 3.15901,-2.74033 0.35457,0.0494 0.38402,0.23408 0.47552,2.98197 l 0.0975,2.92932 1.2691,2.45684 1.2691,2.45684 0.004,10.4416 0.004,10.44159 h -0.47841 c -0.26312,0 -0.51754,-0.10631 -0.56538,-0.23623 z M 74.010383,161.86913 c 0.159033,-0.50107 -0.210696,-1.14107 -0.659191,-1.14107 -0.448495,0 -0.818224,0.64 -0.659194,1.14107 0.08087,0.25478 0.287155,0.37084 0.659194,0.37084 0.372038,0 0.578326,-0.11606 0.659191,-0.37084 z"
       id="path3808"
       inkscape:connector-curvature="0" />
    <path
       style="fill:#ececec;stroke-width:0.1889881"
       d=""
       id="path3810"
       inkscape:connector-curvature="0" />
    <path
       style="fill:#ececec;stroke-width:0.1889881"
       d=""
       id="path3812"
       inkscape:connector-curvature="0" />
    <path
       style="fill:#ececec;stroke-width:0.1889881"
       d="m 85.695372,157.69055 c -0.66312,-0.42477 -0.920297,-1.15965 -0.721918,-2.06287 0.182189,-0.8295 0.918411,-1.32521 1.968188,-1.32521 0.832358,0 0.942332,-0.0656 2.147877,-1.28042 1.231415,-1.24092 1.2706,-1.30985 1.2706,-2.23491 0,-0.78173 0.08828,-1.03744 0.487696,-1.41267 0.977403,-0.91822 2.858715,-0.41808 3.175527,0.8442 0.306575,1.22149 -0.899271,2.50626 -2.164948,2.30666 -0.637887,-0.1006 -0.746548,-0.0331 -1.971839,1.22497 -1.230842,1.26377 -1.294599,1.37298 -1.254445,2.14872 0.03623,0.69992 -0.05018,0.91534 -0.601814,1.50024 -0.752694,0.79809 -1.414814,0.88069 -2.334924,0.29129 z m 1.715164,-1.16748 c 0.303999,-0.48495 -0.08263,-0.99218 -0.756282,-0.99218 -0.426614,0 -0.559901,0.0955 -0.608121,0.43562 -0.126759,0.89418 0.892207,1.30983 1.364403,0.55656 z m 5.229866,-5.25107 c 0.789368,-0.42245 0.10482,-1.49891 -0.775515,-1.2195 -0.254151,0.0807 -0.370838,0.28713 -0.370838,0.65618 0,0.70065 0.463847,0.92859 1.146353,0.56332 z"
       id="path3814"
       inkscape:connector-curvature="0" />
    <path
       style="fill:#ececec;stroke-width:0.1889881"
       d=""
       id="path3816"
       inkscape:connector-curvature="0" />
    <path
       style="fill:#ececec;stroke-width:0.1889881"
       d="m 42.749621,165.53046 c -0.776406,-0.65331 -0.810672,-1.78766 -0.07915,-2.62008 0.438388,-0.49886 0.600483,-0.55543 1.529165,-0.53369 0.926536,0.0217 1.135562,-0.0507 1.934236,-0.67041 0.492493,-0.38211 1.085551,-0.8223 1.317906,-0.97822 0.232351,-0.15592 0.877564,-0.62366 1.433806,-1.03943 0.556239,-0.41578 1.653619,-1.21908 2.438625,-1.78512 1.319802,-0.95166 1.427279,-1.08012 1.427279,-1.70602 0,-0.48525 0.157485,-0.84928 0.556313,-1.28594 0.716928,-0.78494 1.790528,-0.84814 2.5987,-0.15298 0.453176,0.38981 0.530257,0.59742 0.530257,1.42821 0,0.81284 -0.0774,1.03234 -0.472472,1.33984 -0.664628,0.51731 -1.298136,0.64783 -1.95004,0.40176 -0.538586,-0.20329 -0.694087,-0.11453 -3.98267,2.27339 -4.442801,3.22603 -4.272647,3.06483 -4.272647,4.04786 0,1.61202 -1.737064,2.35135 -3.009308,1.28083 z m 1.867853,-0.91908 c 0.601546,-0.72481 -0.496504,-1.5734 -1.167585,-0.90232 -0.308113,0.30811 -0.336582,0.44603 -0.160126,0.77574 0.248468,0.46427 0.988875,0.53486 1.327711,0.12658 z m 10.582227,-7.93616 c 0.12465,-0.1502 0.198848,-0.46911 0.164883,-0.70871 -0.113247,-0.79886 -1.479166,-0.60385 -1.479166,0.21118 0,0.69519 0.875257,1.02652 1.314283,0.49753 z"
       id="path3818"
       inkscape:connector-curvature="0" />
    <path
       style="fill:#ececec;stroke-width:0.1889881"
       d="m 40.278275,169.69359 c -0.25986,-0.14318 -1.19535,-0.59191 -2.07887,-0.99718 -2.559921,-1.17423 -3.578974,-1.64489 -5.291667,-2.44402 -0.883518,-0.41224 -2.031622,-0.93803 -2.551337,-1.16842 -0.519719,-0.23038 -1.550705,-0.7094 -2.291083,-1.06448 -1.061873,-0.50927 -1.581094,-0.6456 -2.458776,-0.6456 -0.929669,0 -1.197781,-0.0789 -1.630421,-0.48012 -0.413467,-0.38338 -0.517786,-0.64795 -0.517786,-1.31318 0,-1.51337 1.382376,-2.33523 2.72198,-1.6183 0.584359,0.31274 1.104405,1.35859 0.964504,1.93969 -0.111966,0.46506 -0.27587,0.36905 3.967533,2.3242 0.831548,0.38314 1.937128,0.89306 2.456844,1.13315 0.519719,0.24009 1.625299,0.74687 2.456847,1.12616 0.831548,0.37929 1.852083,0.84743 2.267857,1.04029 0.420677,0.19515 0.830504,0.27929 0.924047,0.18971 0.09624,-0.0922 -0.420322,-1.05449 -1.208466,-2.25129 -1.326642,-2.0145 -1.401273,-2.09052 -2.057976,-2.09628 -1.840937,-0.0161 -2.570724,-2.34323 -1.057858,-3.37322 0.843759,-0.57446 1.774944,-0.46247 2.461596,0.29604 0.425093,0.46957 0.470599,0.65267 0.3888,1.56444 -0.08953,0.998 -0.05725,1.08672 0.962787,2.64583 0.580483,0.88727 1.277835,1.95339 1.54967,2.36916 0.271836,0.41577 0.558028,0.7843 0.635987,0.81895 0.07796,0.0346 0.143632,0.16222 0.145942,0.28348 0.0024,0.12127 0.17051,0.4331 0.373774,0.69296 0.203266,0.25986 0.371462,0.66382 0.373774,0.89769 0.0034,0.34303 -0.09627,0.42189 -0.515514,0.40795 -0.285845,-0.01 -0.73233,-0.13443 -0.992188,-0.27761 z"
       id="path3820"
       inkscape:connector-curvature="0" />
    <path
       style="fill:#ececec;stroke-width:0.1889881"
       d="m 29.359083,160.17175 c -0.697942,-0.63747 -0.819259,-1.57933 -0.314076,-2.43834 0.284596,-0.48393 0.261257,-0.56366 -0.661459,-2.25962 l -0.956463,-1.75799 v -1.88003 c 0,-2.31781 -0.109892,-2.3581 -1.805887,-0.66211 -1.092793,1.09279 -1.217922,1.29576 -1.217922,1.97548 0,1.05413 -0.32043,1.64991 -1.081639,2.01113 -0.771914,0.3663 -1.316847,0.26522 -2.004148,-0.37175 -0.406103,-0.37636 -0.504988,-0.63799 -0.504988,-1.33607 0,-1.2185 0.588617,-1.79582 1.830958,-1.79582 0.895514,0 0.920423,-0.0172 2.928082,-2.01861 l 2.024882,-2.0186 1.66347,0.20769 c 0.914911,0.11422 2.684007,0.38774 3.931327,0.60781 2.260629,0.39885 4.167709,0.71147 7.344442,1.20393 1.664507,0.25804 1.677736,0.25691 2.153711,-0.18421 0.628753,-0.58271 1.865228,-0.60778 2.571599,-0.0522 0.41874,0.32938 0.497957,0.54128 0.497957,1.33194 0,0.76411 -0.08992,1.02359 -0.479999,1.3851 -0.263999,0.24467 -0.689957,0.49754 -0.946571,0.56195 -0.731142,0.1835 -1.952784,-0.5946 -2.202453,-1.40282 -0.05855,-0.18954 -0.552103,-0.35686 -1.489318,-0.5049 -0.770962,-0.12178 -2.209673,-0.34842 -3.197135,-0.50364 -0.987462,-0.15523 -2.178087,-0.36775 -2.645833,-0.47226 -0.467747,-0.1045 -1.445758,-0.24982 -2.173362,-0.32291 -0.727604,-0.0731 -1.450486,-0.19677 -1.606399,-0.27483 -0.155917,-0.0781 -0.772491,-0.20124 -1.370163,-0.27372 l -1.086684,-0.13179 v 2.3914 2.3914 l 0.661459,1.1286 c 0.363802,0.62074 0.661458,1.19608 0.661458,1.27855 0,0.33281 0.695825,0.92051 1.2286,1.03769 0.677543,0.14902 1.417233,1.13743 1.417233,1.89377 0,0.34726 -0.219088,0.74601 -0.642559,1.16948 -0.843725,0.84372 -1.668002,0.87184 -2.52812,0.0863 z m 1.921989,-1.00284 c 0.304001,-0.48496 -0.08264,-0.99219 -0.75628,-0.99219 -0.426617,0 -0.559903,0.0955 -0.608124,0.43563 -0.126759,0.89417 0.892207,1.30983 1.364404,0.55656 z m -8.120447,-5.2287 c 0.468298,-0.51747 0.108733,-1.14965 -0.65388,-1.14965 -0.308173,0 -0.560315,0.0781 -0.560315,0.17353 0,0.0954 -0.04741,0.29709 -0.105363,0.4481 -0.117126,0.30523 0.376415,0.89028 0.751029,0.89028 0.132381,0 0.388219,-0.16302 0.568529,-0.36226 z M 44.51825,151.2922 c 0.476305,-0.52631 0.232812,-1.14747 -0.449808,-1.14747 -0.785889,0 -1.080106,0.4429 -0.689864,1.03849 0.372018,0.56776 0.696407,0.59878 1.139672,0.10898 z"
       id="path3822"
       inkscape:connector-curvature="0" />
    <path
       style="fill:#ececec;stroke-width:0.1889881"
       d="m 45.475446,170.71519 c -0.798798,-0.43691 -1.059704,-1.34464 -0.734745,-2.55628 0.166806,-0.62196 1.444522,-1.08059 2.224603,-0.79851 0.563825,0.20388 0.680654,0.16409 1.786684,-0.60851 0.650877,-0.45466 1.387768,-0.95423 1.637538,-1.11014 0.603334,-0.37662 3.681089,-2.5089 5.102291,-3.53489 1.566473,-1.13085 1.942412,-1.30737 2.211438,-1.03834 0.160901,0.1609 0.163176,0.42519 0.0088,1.02486 -0.222047,0.86268 -0.736235,2.45362 -0.994119,3.0759 -0.493498,1.1908 -1.13614,3.40098 -1.052362,3.6193 0.132794,0.34605 6.153507,0.37216 6.497495,0.0282 0.126949,-0.12695 0.226787,-0.73563 0.226787,-1.38264 0,-1.08343 -0.04144,-1.19254 -0.661458,-1.74146 -1.210665,-1.07184 -0.815935,-3.0337 0.676333,-3.36146 1.831192,-0.4022 3.010914,2.1617 1.529765,3.32465 -0.474569,0.37262 -0.510936,0.51315 -0.599699,2.31741 l -0.0945,1.92073 -4.49308,0.0507 c -4.030686,0.0455 -4.505402,0.0186 -4.612788,-0.26127 -0.06584,-0.17157 -0.03615,-0.44951 0.06598,-0.61764 0.102127,-0.16813 0.420942,-1.0711 0.708481,-2.00659 0.287538,-0.93549 0.642625,-1.96888 0.789082,-2.29642 0.289417,-0.64725 0.353619,-1.38885 0.120238,-1.38885 -0.157547,0 -1.403324,0.80488 -3.066749,1.98139 -0.571688,0.40434 -1.804834,1.26229 -2.740326,1.90655 -1.614988,1.11224 -1.706513,1.21223 -1.812187,1.97984 -0.189024,1.37308 -1.555488,2.11238 -2.723528,1.47352 z m 1.597009,-1.27613 c 0.277479,-0.51848 -0.32984,-1.24923 -0.890368,-1.07132 -0.496689,0.15764 -0.722791,0.78723 -0.415631,1.15733 0.323355,0.38962 1.078048,0.33992 1.305999,-0.086 z m 16.392858,-4.9078 c 0.174541,-0.27948 0.161891,-0.43952 -0.05975,-0.75595 -0.551471,-0.78733 -1.517031,-0.25256 -1.26742,0.70196 0.137083,0.52421 1.011301,0.55977 1.327168,0.054 z"
       id="path3824"
       inkscape:connector-curvature="0" />
  </g>
</svg>
