M48
INCH,LZ
T01C.012
T02C.01968
T03C.024
T04C.045
T05C.090551
T06C.122
T07C.066929
;LEADER: 12 
;HEADER: 
;CODE  : ASCII 
;FILE  : Digital_CH_V4_4-1-6-np.drl for board Digital_CH_V4_5.brd ... layers TOP and BOTTOM
;T07 Holesize 1. = 66.929100 Tolerance = +4.000000/-2.000000 NON_PLATED MILS
%
G91
T07
X000827Y000202
X-000752Y000638
X000924Y000761
X00089Y-000769
M30
