{
  "name": "Extruder",
  "version": 2,
  "metadata": {
    "type": "extruder",
    "author": "Ultimaker",
    "manufacturer": "Unknown",
    "setting_version": 17,
    "visible": false,
    "position": "0"
  },
  "settings": {
    "machine_settings": {
      "label": "Machine",
      "type": "category",
      "description": "Machine specific settings",
      "children": {
        "extruder_nr": {
          "label": "Extruder",
          "description": "The extruder train used for printing. This is used in multi-extrusion.",
          "type": "extruder",
          "default_value": "0",
          "settable_per_mesh": true,
          "settable_per_extruder": true,
          "settable_per_meshgroup": true,
          "settable_globally": false
        }
      }
    },
    "platform_adhesion": {
      "label": "Build Plate Adhesion",
      "type": "category",
      "icon": "category_adhesion",
      "description": "Adhesion",
      "children": {}
    },
    "material": {
      "label": "Material",
      "icon": "category_material",
      "description": "Material",
      "type": "category",
      "children": {
        "material_diameter": {
          "label": "Diameter",
          "description": "Adjusts the diameter of the filament used. Match this value with the diameter of the used filament.",
          "unit": "mm",
          "type": "float",
          "default_value": 2.85,
          "minimum_value": "0.0001",
          "minimum_value_warning": "0.4",
          "maximum_value_warning": "3.5",
          "enabled": true,
          "settable_per_mesh": false,
          "settable_per_extruder": true
        }
      }
    }
  }
}
